site	tr1	tr2	tr3
1-538	-17903.327388	-17890.33267	-17903.677935
539-1122	-27517.105073	-27521.004359	-27535.010632
1123-1676	-19292.334573	-19380.166433	-19389.37205
1677-2511	-29525.809814	-29507.537654	-29514.490832
2512-3056	-17430.5688	-17422.447378	-17431.744461
3057-3424	-12675.785844	-12681.915321	-12675.676844
3425-3736	-13006.354764	-12994.160171	-13007.249983
3737-4013	-11083.512222	-11085.591216	-11082.309922
4014-4415	-20154.861803	-20207.093533	-20214.769341
4416-4832	-21535.087324	-21555.99466	-21560.35846
4833-5277	-19333.894571	-19340.06249	-19346.391941
5278-5512	-10274.289446	-10275.864698	-10276.390732
5513-5864	-8087.276984	-8083.490566	-8093.394669
5865-6314	-13659.07644	-13656.503429	-13658.48047
6315-6631	-16889.029417	-16893.134746	-16906.277135
6632-7152	-23692.287978	-23692.477511	-23696.269374
7153-7668	-20168.074822	-20161.597218	-20177.908914
7669-8175	-24317.874183	-24318.441278	-24328.106199
8176-8459	-15149.64442	-15152.158994	-15173.127404
8460-9046	-16937.106528	-16931.769964	-16938.403327
9047-10049	-33960.776234	-33995.234975	-33995.258897
10050-10542	-21462.546786	-21467.498881	-21494.671499
10543-11140	-30895.045361	-30907.116965	-30927.580614
11141-11465	-12906.11261	-12918.234839	-12933.177073
11466-11964	-28147.187054	-28143.359834	-28152.230943
11965-12218	-12590.557521	-12596.139564	-12601.280041
12219-12579	-19170.181694	-19177.527804	-19189.491653
12580-12969	-20931.83013	-20921.079387	-20944.570564
12970-13349	-8321.893457	-8325.176513	-8331.373497
13350-13760	-10873.251635	-10897.623952	-10894.37205
13761-13951	-3404.266917	-3404.791567	-3403.394337
13952-14423	-24088.82414	-24078.120717	-24107.308389
14424-14884	-13028.072292	-13024.15355	-13029.133564
14885-15764	-46954.804464	-47136.103529	-47177.954245
15765-15865	-4045.448029	-4043.957636	-4047.740517
15866-16249	-16992.310677	-16979.726272	-17004.954462
16250-16383	-6010.070276	-6012.578395	-6010.753092
16384-16687	-16250.18431	-16260.301597	-16261.276228
16688-17386	-29054.489415	-29090.684283	-29123.375001
17387-18755	-47234.362162	-47257.705	-47294.87433
18756-19102	-14255.586502	-14246.709272	-14256.759758
19103-19244	-6156.274339	-6162.831084	-6162.868723
19245-19618	-21461.421752	-21471.994462	-21477.5425
19619-20152	-22900.678162	-22903.425151	-22914.180921
20153-20753	-26037.253478	-26061.589051	-26066.24358
20754-20953	-11056.255411	-11059.965556	-11060.138961
20954-21655	-31142.42844	-31194.090342	-31200.593651
21656-22253	-32127.350155	-32120.560555	-32137.127773
22254-22647	-15732.937026	-15746.072238	-15751.633878
22648-22946	-16587.271269	-16588.532337	-16596.89119
22947-23377	-14352.98428	-14339.021896	-14355.222037
23378-23666	-9010.546486	-9026.945277	-9031.440802
23667-23957	-14462.318448	-14473.741085	-14486.816448
23958-24380	-16624.409293	-16631.708783	-16647.176337
24381-25481	-31165.464509	-31192.052023	-31221.565302
25482-25857	-14503.390358	-14521.472803	-14525.783475
25858-26594	-28199.75616	-28286.659343	-28301.762411
26595-26891	-11979.034569	-11982.45433	-11987.285018
26892-27154	-10416.363289	-10414.255133	-10415.373666
27155-27613	-17119.897456	-17181.111625	-17205.479595
27614-28265	-14945.172268	-14936.684071	-14956.076963
28266-28928	-29589.565392	-29593.484275	-29601.093343
28929-29017	-3928.284162	-3934.620518	-3933.459711
29018-29244	-9400.39414	-9409.892821	-9410.562922
29245-29579	-13640.585223	-13625.241674	-13635.752881
29580-30006	-14942.534335	-14934.631396	-14946.906993
30007-30354	-17245.027663	-17255.03324	-17260.583165
30355-30624	-13134.379721	-13140.799756	-13148.308973
30625-30878	-8575.449399	-8578.729097	-8576.378542
30879-31156	-9419.205797	-9456.913925	-9460.626489
31157-31329	-7311.154963	-7317.001767	-7321.092169
31330-31680	-12383.739925	-12414.033401	-12430.463572
31681-31823	-7391.35863	-7397.551752	-7410.572744
31824-32377	-23646.90544	-23630.02791	-23649.176535
32378-32683	-12496.633765	-12524.567849	-12547.940271
32684-32846	-5555.418831	-5553.258063	-5561.54657
32847-33004	-8171.905	-8174.450623	-8178.398755
33005-33176	-8301.098257	-8297.513399	-8307.1083
33177-33389	-8109.720411	-8116.040052	-8119.766777
33390-33612	-8942.044815	-8941.759013	-8947.128645
33613-33897	-12800.959631	-12798.456535	-12808.503361
33898-34286	-21192.152396	-21213.977055	-21229.315331
34287-34785	-24060.253806	-24071.862994	-24099.808578
34786-35056	-17863.059883	-17876.109034	-17886.914677
35057-35942	-43496.888725	-43503.970492	-43541.434787
35943-36154	-9221.557376	-9223.061183	-9246.436429
36155-36373	-7206.249646	-7207.163717	-7206.817243
36374-36736	-15867.38704	-15873.646897	-15867.955031
36737-37388	-27547.937328	-27549.861505	-27555.032457
37389-37738	-16155.592284	-16158.842491	-16184.995385
37739-38047	-22949.217319	-22943.130341	-22953.205618
38048-38347	-12100.447434	-12102.150546	-12104.8031
38348-38770	-26665.21022	-26684.221491	-26710.709766
38771-39055	-11792.120009	-11795.285671	-11794.666508
39056-39473	-25835.192141	-25850.283284	-25875.141066
39474-39694	-12474.94121	-12478.975894	-12479.251862
39695-40352	-24464.382048	-24463.025231	-24466.081787
40353-40517	-7265.414229	-7280.672976	-7271.753277
40518-40787	-8865.387591	-8867.138509	-8866.93491
40788-41028	-11575.984742	-11597.19581	-11586.964082
41029-41525	-21325.884056	-21318.235364	-21328.699037
41526-41873	-21391.749561	-21373.108057	-21412.867317
41874-42242	-17720.423783	-17717.081836	-17734.353868
42243-42397	-6997.61654	-7001.676605	-7021.693849
42398-42594	-8726.422805	-8722.250594	-8727.385282
42595-42747	-6997.111247	-7004.557435	-7005.412264
42748-42929	-9890.25559	-9884.205039	-9893.570131
42930-43203	-12353.733931	-12366.919298	-12369.04086
43204-43422	-13885.842382	-13879.038536	-13895.01142
43423-43858	-13125.388402	-13123.795189	-13129.117252
43859-44047	-9772.720746	-9780.469667	-9781.023944
44048-44518	-27683.855639	-27671.23865	-27698.716854
44519-45168	-38560.570648	-38572.023687	-38602.35909
45169-45480	-16078.304964	-16088.64501	-16078.419895
45481-45767	-12805.03746	-12805.107334	-12807.843662
45768-45956	-6745.241622	-6746.766855	-6746.632461
45957-46271	-17024.825836	-17044.261582	-17049.328536
46272-46634	-19275.535716	-19292.924976	-19304.917388
46635-46894	-17845.529704	-17839.735001	-17849.973047
46895-47180	-16381.345317	-16383.938914	-16402.901881
47181-47547	-16732.504321	-16740.419109	-16760.818028
47548-47692	-7322.219903	-7322.267172	-7324.881213
47693-47949	-9863.145956	-9856.036947	-9862.624247
47950-48218	-11938.248718	-11937.242547	-11945.081421
48219-48523	-15140.091741	-15137.609802	-15151.66424
48524-48793	-17365.752289	-17363.994942	-17367.862462
48794-49184	-24635.953515	-24660.435578	-24675.353577
49185-49570	-18185.383416	-18224.164135	-18237.189735
49571-49879	-10240.807984	-10233.376988	-10239.177313
49880-50479	-35088.877597	-35071.757241	-35090.403711
50480-50609	-5132.232642	-5128.565616	-5139.360436
50610-50956	-17797.736334	-17804.06766	-17807.669057
50957-51388	-18443.023074	-18449.914533	-18460.379129
51389-51837	-15609.657858	-15618.415438	-15625.487262
51838-52148	-7898.354306	-7900.840676	-7897.953119
52149-52585	-13564.23604	-13562.478868	-13577.469098
52586-52868	-13379.6107	-13373.564061	-13386.902438
52869-53223	-15920.436265	-15935.484013	-15935.132264
53224-53570	-17992.243623	-17992.994331	-17994.565973
53571-54165	-29874.824311	-29872.116515	-29880.216153
54166-54585	-20143.608454	-20114.001013	-20158.364872
54586-54838	-14224.440279	-14218.463207	-14227.939555
54839-55165	-24028.716672	-24027.868007	-24052.587237
55166-55434	-16990.972061	-16999.121432	-17001.030267
55435-55609	-7259.800385	-7254.175988	-7260.215844
55610-55834	-13520.528089	-13521.53314	-13527.812254
55835-55977	-5542.410065	-5550.242961	-5556.404418
55978-56275	-15965.177985	-15973.595395	-15973.204769
56276-56359	-3619.121291	-3618.65601	-3619.000647
56360-56473	-6041.791331	-6040.736071	-6041.711147
56474-56679	-12614.680966	-12626.73339	-12637.256621
56680-57080	-28353.093625	-28378.897265	-28391.55557
57081-57324	-11160.725149	-11170.07441	-11172.948174
57325-58104	-30313.160864	-30339.609946	-30315.080594
58105-58385	-13326.850631	-13336.780873	-13352.815628
58386-58724	-16637.71845	-16709.801145	-16749.511589
58725-58997	-17953.425622	-17966.058728	-17993.778818
58998-59159	-7404.523819	-7402.761192	-7400.497245
59160-59273	-4647.452834	-4649.652505	-4651.450558
59274-59510	-8780.945832	-8779.667533	-8776.600226
59511-59937	-23945.142778	-23951.037267	-23944.929941
59938-60147	-10371.897275	-10376.022183	-10385.730204
60148-60393	-13939.126092	-13936.430205	-13949.230585
60394-60515	-7194.87668	-7196.723121	-7195.706783
60516-60760	-17134.795424	-17142.440724	-17152.473573
60761-61144	-20802.872282	-20797.79258	-20809.708857
61145-61305	-7998.357627	-8009.757038	-8006.372946
61306-61423	-4465.50373	-4474.102824	-4496.564518
61424-61657	-11906.101296	-11911.418935	-11925.845444
61658-61948	-15094.058794	-15118.947473	-15120.686778
61949-62098	-6209.865498	-6210.870712	-6209.219223
62099-62490	-17611.740198	-17621.730285	-17630.260925
62491-62763	-13889.19815	-13882.142078	-13901.760231
62764-62888	-5480.332	-5481.29333	-5481.237343
62889-63097	-13320.109295	-13321.31791	-13322.080717
63098-64140	-49833.703204	-49838.972859	-49848.683012
64141-64350	-11775.981754	-11776.668153	-11780.14351
64351-64638	-16437.157324	-16428.134129	-16443.007036
64639-65277	-28456.429726	-28459.920996	-28464.753906
65278-65794	-23045.186108	-23094.940045	-23115.625719
65795-66105	-16268.037443	-16258.877692	-16273.437734
66106-66349	-9681.340943	-9694.478988	-9691.984113
66350-66523	-11006.31211	-11012.260177	-11012.384204
66524-66936	-15043.501678	-15045.750614	-15042.491929
66937-67718	-37876.657948	-37930.211662	-37941.061295
67719-68066	-12556.631578	-12554.89566	-12562.833816
68067-68292	-11973.630834	-12004.095887	-12021.221013
68293-68475	-6597.156788	-6599.248184	-6597.290119
68476-68633	-5685.678059	-5683.167113	-5684.962047
68634-68868	-10564.746271	-10565.368818	-10563.962906
68869-69081	-10263.993571	-10271.269915	-10274.634455
69082-69377	-14525.543486	-14526.670208	-14529.632255
69378-69553	-7566.035225	-7572.449418	-7580.490534
69554-70180	-28751.755926	-28757.231842	-28766.01757
70181-70358	-9149.187953	-9175.971232	-9178.718704
70359-70449	-4149.147679	-4143.353221	-4148.994625
70450-70683	-8847.305822	-8845.376688	-8844.885594
70684-70820	-4402.473436	-4404.162338	-4411.308158
70821-71024	-11753.928346	-11761.510835	-11776.0828
71025-71332	-18880.989287	-18881.048649	-18881.083388
71333-71618	-12957.571757	-12947.803344	-12972.203092
71619-71877	-9231.314277	-9220.282697	-9226.608747
71878-72069	-6037.311015	-6046.681473	-6046.830409
72070-72489	-27454.691112	-27456.763218	-27465.817876
72490-72697	-10307.102884	-10331.025713	-10322.062365
72698-72875	-11001.278414	-11003.247049	-11008.824344
72876-73059	-9206.73592	-9220.080771	-9221.960263
73060-73211	-5508.11532	-5503.459094	-5512.520148
73212-73735	-20365.222305	-20371.663924	-20391.769447
73736-74012	-11933.72994	-11934.332637	-11940.713873
74013-74153	-7045.039885	-7045.917085	-7046.383627
74154-74856	-39284.775137	-39315.120521	-39328.032267
74857-74984	-5898.779085	-5903.53448	-5901.429447
74985-75230	-12987.958046	-12988.52075	-12989.538255
75231-75525	-12329.814397	-12333.636804	-12329.432943
75526-75918	-20318.618809	-20325.346208	-20332.553106
75919-76084	-8668.86336	-8668.857596	-8667.573918
76085-76357	-11716.005251	-11709.684158	-11716.121912
76358-76529	-6309.766905	-6309.775389	-6309.806722
76530-76673	-6042.866869	-6041.904919	-6042.755206
76674-76954	-10887.658526	-10896.865528	-10907.165595
76955-77107	-5496.84386	-5497.319568	-5499.435134
77108-77258	-8361.097683	-8364.482332	-8365.656684
77259-77387	-6189.559231	-6198.015016	-6198.478622
77388-77514	-6122.008508	-6117.324699	-6122.202749
77515-77822	-11516.419553	-11525.613313	-11519.239701
77823-78160	-16209.672053	-16222.404626	-16214.568772
78161-78401	-13684.379214	-13690.759996	-13696.790995
78402-78693	-17461.848109	-17461.583265	-17478.831235
78694-79219	-28698.346962	-28731.346154	-28740.510113
79220-79647	-15956.6741	-15968.104225	-15954.563194
79648-80070	-24808.482791	-24808.128034	-24823.763381
80071-80538	-23508.267697	-23517.03471	-23504.933057
80539-80803	-14164.226237	-14165.715666	-14162.355449
80804-81005	-9521.624429	-9509.593974	-9527.928943
81006-81128	-6465.704797	-6468.685206	-6467.736377
81129-81363	-10050.690143	-10064.601498	-10083.42523
81364-81595	-9327.806455	-9332.692079	-9347.254187
81596-82039	-19354.929079	-19362.704027	-19370.854264
82040-82418	-20433.146176	-20420.699961	-20454.838344
82419-82729	-7086.41435	-7089.983293	-7088.953279
82730-82831	-5589.489565	-5589.635811	-5595.108154
82832-83986	-50761.087657	-50760.980355	-50758.209575
83987-84298	-14507.332068	-14510.742029	-14505.426653
84299-84542	-8797.016319	-8800.935554	-8801.625198
84543-84776	-10582.853205	-10587.413131	-10590.472405
84777-85145	-19058.796488	-19062.368964	-19065.545929
85146-85580	-20182.910806	-20186.288536	-20201.099984
85581-85765	-10228.847087	-10245.214156	-10239.804145
85766-85900	-6213.319172	-6210.391602	-6213.977847
85901-86159	-13183.208709	-13170.689633	-13179.593925
86160-87758	-60710.35757	-60705.438736	-60740.977914
87759-87901	-5440.616209	-5449.254154	-5454.889064
87902-88209	-15877.651364	-15886.033072	-15913.550203
88210-88402	-12732.457765	-12740.403383	-12733.508327
88403-88561	-9290.479511	-9288.464966	-9301.809829
88562-88710	-6153.85866	-6157.886611	-6159.284192
88711-89378	-28062.644236	-28108.652036	-28108.989621
89379-90235	-33802.852585	-33817.516636	-33832.880806
90236-90389	-9359.08193	-9364.319341	-9368.98928
90390-90723	-15638.4036	-15644.72107	-15636.752685
90724-91031	-16485.719405	-16483.261211	-16499.835856
91032-91247	-9263.681513	-9253.404393	-9270.132713
91248-91460	-12107.515153	-12102.808891	-12107.407434
91461-91844	-21995.224454	-22023.357342	-22026.562999
91845-92113	-12983.533182	-12996.726459	-12995.798421
92114-92203	-4662.738892	-4668.405105	-4666.584907
92204-93056	-32984.850804	-33028.830368	-33088.874986
93057-93355	-19513.398673	-19520.759362	-19521.04526
93356-94277	-31548.531336	-31600.205214	-31614.164639
94278-94687	-16186.960748	-16193.654064	-16185.841407
94688-95439	-48977.558368	-48976.143684	-48980.56362
95440-95583	-7547.449247	-7553.911233	-7557.416692
95584-96013	-21240.508694	-21239.471599	-21251.114292
96014-96191	-8005.076937	-8005.565183	-8015.562425
96192-96390	-10083.582308	-10080.669627	-10084.174952
96391-96682	-20078.287195	-20075.456123	-20097.500869
96683-97318	-32236.792533	-32259.478188	-32285.140359
97319-97870	-23517.043787	-23512.455167	-23517.832225
97871-98339	-19900.176045	-19919.5923	-19920.808586
98340-98640	-17203.756496	-17207.397699	-17218.172526
98641-98948	-15176.153306	-15168.60651	-15177.561759
98949-99146	-10623.339466	-10626.108976	-10621.538671
99147-99561	-19712.71175	-19708.804123	-19715.272773
99562-100361	-35039.819781	-35063.23463	-35115.560965
100362-101306	-27300.863974	-27312.154938	-27321.977919
101307-101757	-21649.315121	-21653.714373	-21668.718694
101758-102020	-8326.92773	-8367.960613	-8375.405674
102021-102269	-15796.558928	-15802.438592	-15816.892466
102270-102387	-6834.298386	-6842.278587	-6843.822961
102388-102797	-12716.016873	-12728.623991	-12728.865333
102798-103098	-15461.8847	-15468.824008	-15477.425559
103099-104289	-47160.364742	-47210.657808	-47277.133176
104290-104922	-34080.299547	-34179.587847	-34227.740028
104923-105382	-30485.480194	-30489.980149	-30499.294985
105383-105536	-9467.641114	-9461.18348	-9471.271072
105537-106100	-20675.575574	-20684.990439	-20692.749726
106101-106222	-4647.371152	-4654.322	-4651.30488
106223-106364	-6626.456656	-6634.183826	-6638.852596
106365-106695	-16187.379693	-16188.600205	-16189.111926
106696-106855	-5518.344533	-5524.873939	-5525.772373
106856-107359	-24607.542986	-24624.263061	-24622.442291
107360-107627	-13667.091433	-13681.407976	-13685.102387
107628-107895	-13980.201853	-13984.940503	-13989.506293
107896-108207	-13710.14488	-13717.692108	-13720.211876
108208-108435	-14088.353194	-14090.562543	-14101.722517
108436-108538	-3679.232646	-3687.299776	-3694.96046
108539-108619	-4041.109408	-4043.746389	-4042.48919
108620-108795	-9085.600884	-9083.052523	-9090.288619
108796-109142	-20302.729785	-20324.532272	-20317.015504
109143-109991	-59151.238672	-59138.210732	-59205.832574
109992-110188	-8162.57968	-8161.697002	-8170.86251
110189-110376	-10713.425085	-10723.332122	-10717.693228
110377-110674	-13824.171216	-13839.698399	-13841.476222
110675-110868	-13197.476186	-13200.645445	-13203.538638
110869-111016	-4332.98984	-4330.768002	-4328.198235
111017-111897	-38437.418751	-38446.584699	-38445.65694
111898-112736	-42659.766653	-42634.749034	-42670.325064
112737-112919	-8721.173119	-8719.325323	-8723.361771
112920-113297	-18979.630825	-18979.587725	-18996.175537
113298-113384	-5983.433996	-5981.807375	-5987.408396
113385-113468	-4498.489999	-4501.976987	-4505.44821
113469-113806	-15430.405408	-15445.559972	-15458.256454
113807-114176	-19426.64546	-19426.95322	-19428.580975
114177-114266	-3497.929017	-3501.440754	-3501.432617
114267-114441	-10779.288344	-10777.328472	-10787.715978
114442-114587	-5951.140423	-5947.220421	-5951.641597
114588-114716	-6164.511338	-6165.526451	-6178.178167
114717-114800	-4773.259167	-4770.667323	-4772.669285
114801-114956	-8641.721666	-8649.947875	-8645.399535
114957-115146	-9179.871557	-9182.346173	-9180.777515
115147-115492	-16667.995208	-16688.87364	-16706.866168
115493-116217	-31968.157621	-32016.61474	-32022.643912
116218-116356	-7847.621105	-7851.522545	-7867.058679
116357-116560	-6767.985865	-6765.734978	-6775.566797
116561-116688	-7850.919021	-7859.18252	-7858.66887
116689-117540	-36490.653834	-36491.087123	-36498.224293
117541-117786	-11140.124007	-11147.515215	-11149.121927
117787-118083	-13042.54521	-13049.835737	-13054.649931
118084-118173	-4354.361434	-4354.47116	-4355.02256
118174-118273	-3266.995975	-3269.297764	-3266.8979
118274-118439	-9366.603218	-9379.711414	-9383.107898
118440-119044	-31602.738841	-31632.841337	-31646.589975
119045-119526	-22871.050276	-22879.47472	-22869.381209
119527-119973	-22412.918733	-22444.82554	-22448.070644
119974-120394	-23005.662068	-23006.880812	-23003.732084
120395-120743	-13115.710731	-13155.803583	-13141.034253
120744-121210	-16408.163083	-16438.627598	-16429.749518
121211-121718	-33125.576557	-33126.114409	-33165.272078
121719-121819	-6192.133392	-6190.550038	-6188.647655
121820-122342	-21198.991952	-21209.106282	-21200.530365
122343-122441	-4740.238952	-4731.822469	-4742.417942
122442-123212	-38942.764965	-38955.41118	-38967.210281
123213-123546	-15651.766666	-15661.114351	-15663.179443
123547-123668	-6659.848856	-6662.552085	-6661.615728
123669-123871	-13465.043419	-13474.409803	-13476.970131
123872-124097	-9438.97506	-9462.684336	-9467.357911
124098-124226	-5460.639317	-5461.784953	-5460.75264
124227-124774	-33698.658845	-33706.339566	-33734.798498
124775-124902	-7945.03161	-7948.833045	-7951.432913
124903-125155	-12400.681046	-12432.634154	-12454.41331
125156-125413	-13385.143234	-13389.287243	-13395.755146
125414-125673	-12747.74483	-12767.547122	-12759.036635
125674-125905	-14743.614673	-14754.781769	-14764.191544
125906-126120	-10558.186659	-10556.583653	-10558.734134
126121-126556	-17251.244771	-17247.663318	-17270.09465
126557-127130	-31684.74571	-31704.171334	-31732.475797
127131-127212	-3193.043072	-3195.088099	-3195.605208
127213-127490	-18586.750279	-18580.927514	-18594.122362
127491-128250	-30627.307155	-30639.174414	-30670.750865
128251-128477	-12435.79916	-12438.941436	-12456.983951
128478-129407	-38265.724224	-38284.278678	-38315.30319
129408-129619	-13641.259554	-13647.620142	-13648.598682
129620-129824	-12720.641351	-12733.537196	-12740.6639
129825-130028	-11689.171326	-11706.473075	-11707.160313
130029-130217	-10340.061849	-10342.912116	-10351.717577
130218-130500	-17318.428243	-17317.52752	-17326.513474
130501-130686	-8416.786599	-8417.242187	-8427.570168
130687-130976	-16287.802032	-16300.657281	-16300.857129
130977-131100	-5952.269417	-5952.837642	-5960.000929
131101-131486	-18821.380694	-18821.421269	-18832.027806
131487-131734	-14144.376216	-14140.784157	-14158.395679
131735-131991	-10876.616236	-10882.335334	-10892.951284
131992-132128	-8399.991916	-8398.495209	-8404.309113
132129-132469	-17310.377886	-17343.063588	-17349.336403
132470-132745	-9867.657981	-9868.338792	-9864.241834
132746-133109	-20746.418282	-20750.292542	-20772.251895
133110-133495	-21427.367743	-21420.2073	-21431.919256
133496-133631	-6875.19973	-6875.743018	-6874.588388
133632-134040	-20239.112012	-20244.981615	-20253.051866
134041-134287	-13324.295074	-13322.994472	-13325.533345
134288-134606	-14113.062137	-14124.034395	-14125.875823
134607-135023	-21543.334574	-21540.478307	-21571.290422
135024-135656	-23844.902728	-23835.069119	-23876.794621
135657-135958	-14626.166546	-14622.09187	-14629.250797
135959-136493	-26884.930123	-26910.53131	-26952.003667
136494-136776	-11256.039414	-11268.890293	-11261.972676
136777-137141	-13956.298223	-13964.790932	-13989.551443
137142-137311	-12133.079888	-12134.895795	-12137.707563
137312-137565	-14689.032889	-14669.106263	-14707.758766
137566-138018	-22109.203838	-22126.949525	-22136.787635
138019-138254	-7768.904612	-7767.712689	-7768.888254
138255-138891	-43096.914468	-43084.525327	-43133.979182
138892-139231	-15823.325093	-15821.893857	-15834.027155
139232-139529	-20758.642273	-20763.274844	-20780.016721
139530-139711	-11195.236328	-11205.62766	-11203.108753
139712-140486	-32794.381352	-32781.529499	-32801.389524
140487-140641	-9492.917494	-9505.714386	-9507.83114
140642-141416	-35888.090684	-35909.711232	-35939.000221
141417-141846	-21082.582542	-21098.720589	-21086.399022
141847-142250	-21212.98974	-21211.589472	-21206.438349
142251-142478	-8157.237745	-8153.455289	-8171.125644
142479-142733	-12477.701896	-12507.54975	-12515.016872
142734-142989	-14473.796074	-14485.781517	-14483.777101
142990-143079	-3205.499866	-3207.855386	-3207.376861
143080-143176	-6183.565036	-6190.643104	-6190.43845
143177-143430	-10425.720483	-10429.056857	-10428.636062
143431-143796	-18464.316017	-18519.118058	-18520.397622
143797-144065	-16228.296745	-16240.889796	-16253.062668
144066-144305	-10989.071502	-10989.843639	-10994.940155
144306-144428	-6841.602295	-6841.12441	-6842.221136
144429-144771	-18501.949789	-18503.240575	-18517.919685
144772-145090	-18496.187431	-18500.580388	-18494.062339
145091-145318	-13149.831951	-13153.677253	-13158.61297
145319-145489	-12791.362299	-12784.157527	-12800.352099
145490-145798	-14937.1913	-14927.396859	-14944.270236
145799-146032	-15239.429906	-15240.49479	-15250.83173
146033-146239	-8113.737207	-8108.706797	-8125.499439
146240-146494	-13006.696884	-13007.948778	-13015.129379
146495-146662	-6237.067665	-6236.463971	-6241.199496
146663-147068	-17690.577168	-17739.064047	-17747.129826
147069-147212	-7021.250406	-7018.004086	-7030.853086
147213-147331	-5655.528975	-5653.957048	-5659.392524
147332-147786	-24172.692656	-24174.069629	-24181.738954
147787-148032	-10482.299971	-10483.743374	-10489.283696
148033-148254	-10250.531404	-10260.302053	-10269.278606
148255-148549	-18478.042632	-18475.359762	-18475.7183
148550-148840	-18455.026401	-18456.268859	-18462.944314
148841-148988	-7058.353448	-7054.999161	-7064.715226
148989-149491	-23111.273955	-23111.14501	-23121.219063
149492-149591	-4466.628355	-4471.833682	-4470.790796
149592-149847	-13516.259963	-13528.103393	-13512.904165
149848-150126	-12093.301821	-12088.859811	-12095.30291
150127-150447	-16051.288	-16067.265388	-16065.32045
150448-150808	-14731.434949	-14741.995977	-14746.061028
150809-151179	-20166.633607	-20162.067976	-20167.219595
151180-151683	-23288.976031	-23296.7955	-23301.674511
151684-151845	-8490.162576	-8491.617784	-8500.038187
151846-152200	-20873.071667	-20882.679458	-20883.465974
152201-152417	-9578.004893	-9578.954623	-9576.934135
152418-152730	-14668.518296	-14676.294577	-14698.518698
152731-153007	-14831.487348	-14833.936416	-14832.467091
153008-153421	-21528.902517	-21536.233267	-21542.513151
153422-153645	-11380.23802	-11371.76103	-11378.997454
153646-153965	-15476.674494	-15496.941778	-15490.057989
153966-154176	-12822.619084	-12808.15938	-12832.019378
154177-154278	-4533.728876	-4530.196551	-4535.474512
154279-154722	-24154.782038	-24161.092932	-24167.365156
154723-154986	-12079.828744	-12090.42903	-12103.370017
154987-155158	-11146.463535	-11143.273305	-11148.938886
155159-155540	-15472.372828	-15483.859191	-15491.69807
155541-155690	-9397.558427	-9402.972344	-9404.208331
155691-155845	-9150.028767	-9152.135531	-9154.860279
155846-156108	-13015.563917	-13021.970995	-13024.100038
156109-156388	-16063.621606	-16071.235105	-16074.279734
156389-157094	-31699.102773	-31741.790129	-31768.154664
157095-157363	-17675.114243	-17679.143357	-17681.159024
157364-157609	-11601.205899	-11596.92058	-11601.844268
157610-157809	-10663.93339	-10683.415421	-10686.147322
157810-158000	-8725.626778	-8724.979084	-8729.668639
158001-158112	-3631.766626	-3647.592557	-3665.920458
158113-158327	-9600.065647	-9600.053826	-9600.505931
158328-159068	-35534.168198	-35618.029587	-35642.890472
159069-159614	-23142.838211	-23151.301162	-23150.96063
159615-159848	-11372.109623	-11370.886866	-11372.256532
159849-160037	-9884.311534	-9886.15186	-9897.936707
160038-160206	-8521.710247	-8522.344522	-8522.201805
160207-160304	-3859.763167	-3859.530887	-3860.057618
160305-160495	-12665.159093	-12663.397592	-12671.020682
160496-160602	-4785.567984	-4787.411241	-4796.358632
160603-161246	-38010.324857	-38044.672942	-38056.761713
161247-161374	-4322.086754	-4329.22514	-4325.345859
161375-161554	-10185.202533	-10184.913991	-10180.632294
161555-161766	-8263.467116	-8266.177424	-8262.946194
161767-162208	-20025.907328	-20051.480955	-20059.622904
162209-162378	-11581.27349	-11578.32305	-11592.012529
162379-162480	-5406.186587	-5405.643259	-5411.211372
162481-162693	-13773.42471	-13768.383811	-13772.687389
162694-162826	-7403.126301	-7412.840865	-7417.62109
162827-163011	-8722.202145	-8740.869232	-8739.308759
163012-163162	-10467.500652	-10468.611917	-10472.562125
163163-163455	-14252.702592	-14244.040179	-14265.616563
163456-163707	-13921.06747	-13933.132966	-13938.596557
163708-163845	-6596.581519	-6591.614579	-6605.187641
163846-164021	-13643.627443	-13641.730623	-13647.403184
164022-164278	-14625.21842	-14626.922248	-14642.276972
164279-164472	-11338.28128	-11379.678992	-11394.189906
164473-164648	-11624.769904	-11640.26184	-11645.855855
164649-164744	-5633.150854	-5626.264304	-5640.123812
164745-165733	-44539.757748	-44542.405374	-44538.017664
165734-166109	-21185.488751	-21171.308716	-21192.649314
166110-166594	-24038.215748	-24031.710962	-24034.732071
166595-166751	-9757.743747	-9761.156132	-9763.573748
166752-167399	-32590.232102	-32629.463203	-32651.737207
167400-167699	-15804.039342	-15810.709353	-15828.362852
167700-167910	-10406.94268	-10411.934571	-10410.126931
167911-168409	-24193.172353	-24180.341429	-24218.469946
168410-168513	-5937.247683	-5942.388978	-5943.643444
168514-168687	-12071.452946	-12091.032472	-12099.986506
168688-168788	-6950.283732	-6952.513096	-6954.12725
168789-169113	-17126.854715	-17127.701685	-17130.230897
169114-169568	-25740.164558	-25743.700386	-25764.071582
169569-169961	-15450.363507	-15489.793783	-15516.405768
169962-170334	-16841.843932	-16866.349609	-16877.668124
170335-170579	-18337.561019	-18341.598267	-18345.195648
170580-170693	-8844.58677	-8842.614892	-8849.055343
170694-170795	-4802.762333	-4809.800833	-4813.828866
170796-170974	-12105.724644	-12103.496804	-12109.487668
170975-171266	-15707.547081	-15710.807612	-15732.949151
171267-171735	-22791.941063	-22797.265217	-22843.341346
171736-172097	-21565.242331	-21598.007404	-21599.876125
172098-172306	-11084.07693	-11080.374921	-11091.114404
172307-172509	-10224.366878	-10226.744534	-10230.253222
172510-172768	-11793.464897	-11792.870239	-11791.234842
172769-173214	-21530.087188	-21530.429214	-21532.097235
173215-173447	-12858.14753	-12855.696119	-12870.331187
173448-173655	-10685.465373	-10685.496783	-10696.94164
173656-173798	-6899.169085	-6906.268418	-6905.629975
173799-174005	-10621.437843	-10616.985922	-10634.65582
174006-174148	-6961.409356	-6957.850865	-6959.501101
174149-174408	-12843.053799	-12838.18691	-12843.277432
174409-175135	-32929.490747	-32935.013988	-32928.011703
175136-175392	-13805.739787	-13803.784406	-13805.522359
175393-175477	-6060.996765	-6059.272515	-6062.075223
175478-175632	-9006.644978	-9004.989401	-9011.806134
175633-175721	-4541.474678	-4540.255172	-4543.137672
175722-175828	-5547.683274	-5549.512654	-5549.631993
175829-175932	-5804.170906	-5800.886381	-5808.347506
175933-176113	-9094.251429	-9108.666315	-9119.077079
176114-176562	-23266.98355	-23319.773961	-23336.513948
176563-176798	-11148.122789	-11152.502667	-11163.218087
176799-176982	-9502.709164	-9494.7273	-9512.228635
176983-177167	-7564.476718	-7562.012962	-7566.446714
177168-177602	-22979.18818	-22986.976876	-23003.902925
177603-177922	-20427.740888	-20430.915931	-20445.249504
177923-178165	-12667.368022	-12675.343544	-12698.990502
178166-178616	-20930.390922	-20971.746413	-20987.122912
178617-178817	-7818.492003	-7824.396587	-7835.884091
178818-179153	-19177.825652	-19217.330663	-19236.303864
179154-179410	-13073.927775	-13077.195546	-13076.196682
179411-179594	-10155.764932	-10161.748194	-10165.587427
179595-179696	-7121.923751	-7119.921522	-7119.115285
179697-179890	-11087.900363	-11089.964038	-11094.926542
179891-180015	-7826.33426	-7823.470576	-7835.797742
180016-180507	-28405.782325	-28404.513269	-28404.670779
180508-180606	-5246.14449	-5248.406329	-5253.679305
180607-181065	-21072.482863	-21068.492996	-21071.701998
181066-181183	-5257.402907	-5253.167381	-5256.496137
181184-181334	-6583.481201	-6578.659624	-6577.812303
181335-181472	-7121.90458	-7132.00022	-7132.218585
181473-181558	-6567.177967	-6572.616982	-6588.535531
181559-181733	-8486.995943	-8485.213517	-8486.564163
181734-181983	-10836.306977	-10833.490709	-10835.706892
181984-182253	-11715.485634	-11705.572991	-11720.686198
182254-182655	-23582.428252	-23596.666069	-23599.814276
182656-182829	-8627.215824	-8623.945658	-8640.007597
182830-183241	-20530.357486	-20550.693524	-20564.688234
183242-183321	-4304.437277	-4312.23945	-4313.580404
183322-183588	-15561.281929	-15566.259819	-15578.199761
183589-183789	-9572.903331	-9577.139826	-9577.001759
183790-183933	-7013.402389	-7004.742961	-7022.964426
183934-184204	-12969.869564	-12981.476659	-12984.414566
184205-184531	-11960.764042	-11972.173643	-11978.536122
184532-185085	-22921.668895	-22902.485382	-22947.716245
185086-185361	-13646.620279	-13645.750569	-13646.397953
185362-185739	-20758.477553	-20773.798054	-20782.227043
185740-185924	-7808.749967	-7832.127371	-7835.011647
185925-186079	-7008.436762	-7012.764639	-7009.876744
186080-186275	-12486.137936	-12490.780269	-12499.756351
186276-186526	-10795.994527	-10800.137177	-10803.302238
186527-186705	-11604.382717	-11617.990274	-11639.213464
186706-186862	-7418.351437	-7418.032826	-7419.648487
186863-187054	-12487.703851	-12480.420164	-12489.78833
187055-187272	-7944.018422	-7938.624698	-7945.54685
187273-187461	-11621.798373	-11620.760699	-11625.461252
187462-187661	-7778.886302	-7792.051484	-7783.092911
187662-187922	-9402.243862	-9405.793776	-9408.661105
187923-188222	-15845.304683	-15854.530247	-15864.302315
188223-188357	-3333.915262	-3331.590703	-3337.92457
188358-188558	-9252.13796	-9255.952907	-9263.672274
188559-188896	-18198.216513	-18187.96542	-18206.65274
188897-189512	-29068.284178	-29055.340162	-29095.157677
189513-189609	-5110.323892	-5117.073277	-5121.017588
189610-190184	-26406.667772	-26413.143514	-26420.910624
190185-190800	-25041.620024	-25044.906972	-25040.664165
190801-191325	-25293.099155	-25316.979912	-25324.302449
191326-191813	-29479.54504	-29501.3334	-29571.360136
191814-191983	-8988.609876	-8983.736826	-8991.405606
191984-192185	-13167.165514	-13172.744646	-13182.946126
192186-192777	-25876.524206	-25887.321518	-25897.71979
192778-193217	-23950.566964	-23948.144064	-23966.408825
193218-193501	-15068.217399	-15098.55821	-15101.086135
193502-193630	-6788.541958	-6789.03045	-6788.241975
193631-193930	-15364.794135	-15373.267484	-15377.220905
193931-194192	-17082.046174	-17085.333348	-17089.416018
194193-194443	-14228.953045	-14232.465469	-14242.523542
194444-194851	-26296.544932	-26300.887653	-26307.482497
194852-195337	-23594.432351	-23593.450268	-23611.182478
195338-195950	-34414.167268	-34441.164866	-34465.82776
195951-196146	-8335.979054	-8334.532819	-8336.74937
196147-196527	-13829.310796	-13828.778083	-13829.637848
196528-196776	-13620.915052	-13622.267848	-13637.479195
196777-197315	-25565.724755	-25553.558156	-25564.374349
197316-197534	-13155.228192	-13180.446695	-13189.042207
197535-197718	-11052.965792	-11056.705226	-11061.915612
197719-197954	-13102.007073	-13105.87183	-13129.982516
197955-198104	-5723.272358	-5726.080232	-5729.086145
198105-198218	-7294.090075	-7298.144548	-7297.7944
198219-198317	-5647.788462	-5643.08824	-5653.230217
198318-198582	-16640.130812	-16644.051179	-16650.626801
198583-199018	-21869.796398	-21879.907973	-21873.557068
199019-199230	-12244.701976	-12253.919889	-12260.619557
199231-199452	-15127.971717	-15129.518663	-15140.041643
199453-199646	-8254.674967	-8248.481323	-8263.590848
199647-199897	-14151.511264	-14145.432052	-14166.410118
199898-200021	-5929.79974	-5933.311108	-5930.026301
200022-200388	-14222.493128	-14215.633465	-14223.552432
200389-200604	-14038.817981	-14043.744375	-14039.477823
200605-200745	-4192.03264	-4202.245593	-4204.419728
200746-200836	-4987.759839	-4981.657222	-4989.634431
200837-201255	-23756.679309	-23758.808598	-23756.701542
201256-201385	-8788.852796	-8785.105998	-8788.485704
201386-201663	-15151.190762	-15152.034116	-15150.035609
201664-201920	-15260.830277	-15279.600596	-15295.487098
201921-202036	-7041.13436	-7046.126912	-7049.96396
202037-202247	-11033.010516	-11045.04287	-11044.146503
202248-202401	-6164.333411	-6177.415251	-6178.827585
202402-202495	-5087.688762	-5089.553605	-5085.528989
202496-202697	-13163.26986	-13159.558895	-13175.460816
202698-202854	-8626.504105	-8624.628012	-8637.742571
202855-203017	-12117.358567	-12119.81956	-12141.065708
203018-203238	-7111.576732	-7115.275292	-7117.684144
203239-203465	-9670.944445	-9662.665265	-9680.932814
203466-203592	-6331.583173	-6332.363359	-6336.401357
203593-204203	-22969.071993	-22991.870975	-22983.639051
204204-204403	-11729.103961	-11758.438295	-11774.766093
204404-204721	-20704.830995	-20702.550873	-20709.95011
204722-204839	-6447.36519	-6437.173018	-6439.346553
204840-204961	-4429.523385	-4444.960427	-4444.564821
204962-205318	-19354.791656	-19354.265416	-19375.510053
205319-205598	-15229.107412	-15238.164221	-15242.678341
205599-205752	-10586.49962	-10599.232986	-10596.834721
205753-205879	-6445.75066	-6432.033434	-6451.444003
205880-206376	-34084.852109	-34079.198286	-34090.443579
206377-206538	-9529.029281	-9545.847272	-9539.033652
206539-206874	-18291.111914	-18277.7031	-18289.81302
206875-207019	-6200.235075	-6189.927864	-6195.478801
207020-207914	-44557.085854	-44586.534371	-44603.525844
207915-208135	-14061.408974	-14083.264934	-14083.265672
208136-208544	-16865.364533	-16888.152435	-16890.669322
208545-208804	-14734.238207	-14725.235782	-14740.466339
208805-208963	-9264.326751	-9264.49596	-9268.147271
208964-209094	-5270.754347	-5270.319411	-5272.875091
209095-209465	-24693.468795	-24692.926506	-24711.871306
209466-209613	-9262.511392	-9259.983941	-9257.542028
209614-209803	-13489.822055	-13491.887954	-13500.311065
209804-209999	-9058.025011	-9080.38093	-9080.676599
210000-210345	-15881.911029	-15861.85741	-15879.513938
210346-210542	-12767.650316	-12773.966139	-12780.618804
210543-210690	-8582.344567	-8595.4804	-8592.12943
210691-210883	-14607.586669	-14615.756713	-14622.093429
210884-210970	-4338.213151	-4333.931275	-4335.627308
210971-211224	-13220.624269	-13236.943756	-13242.6707
211225-211311	-4449.77871	-4449.101801	-4448.71963
211312-211817	-22134.417405	-22147.405131	-22137.123077
211818-211950	-6872.782898	-6873.76175	-6869.508621
211951-212101	-7856.347366	-7854.534237	-7857.380159
212102-212190	-3949.266492	-3956.289347	-3954.42898
212191-212686	-29797.975513	-29801.740789	-29798.069412
212687-212789	-3849.610438	-3852.851729	-3850.578705
212790-213298	-23765.755118	-23839.665105	-23869.676064
213299-213432	-4802.947276	-4807.227137	-4814.830273
213433-213636	-10260.410449	-10268.431982	-10266.719047
213637-213847	-9237.311145	-9236.886348	-9241.01879
213848-214344	-16174.10851	-16176.75021	-16187.343161
214345-214620	-12572.813921	-12571.098406	-12572.120894
214621-214975	-18588.470591	-18587.566646	-18592.387272
214976-215178	-9672.097652	-9673.779183	-9675.099642
215179-215551	-16246.983555	-16244.164943	-16251.434571
215552-215827	-13031.509671	-13029.325108	-13030.560383
215828-215949	-6942.764309	-6945.790531	-6946.965654
215950-216142	-9013.643583	-9021.333276	-9023.225352
216143-216267	-8268.09048	-8262.681893	-8270.5621
216268-216365	-5538.157438	-5544.581871	-5539.735465
216366-216489	-9072.310019	-9079.736243	-9078.852919
216490-216790	-18874.128413	-18869.10377	-18880.248856
216791-216872	-4448.384972	-4445.861361	-4444.105487
216873-217016	-9487.42751	-9486.3053	-9488.077867
217017-217171	-8269.800905	-8286.910111	-8291.099943
217172-217296	-5729.271396	-5721.310643	-5736.949726
217297-217463	-9614.900356	-9614.098478	-9614.508576
217464-217551	-5565.594613	-5567.17854	-5567.90042
217552-217708	-8150.432326	-8155.706187	-8150.657677
217709-217960	-13004.188363	-12994.624757	-13009.111838
217961-218211	-14696.414442	-14697.450559	-14706.652889
218212-218488	-21739.777851	-21764.136502	-21774.055492
218489-218576	-6081.68881	-6086.395163	-6101.020436
218577-218727	-7395.432605	-7395.488874	-7396.09914
218728-218907	-10784.727989	-10783.421038	-10791.290761
218908-218994	-4925.234197	-4921.617395	-4924.512242
218995-219136	-6946.979469	-6948.08701	-6946.582971
219137-219304	-9923.20032	-9931.505466	-9938.751339
219305-219556	-13599.683196	-13599.632281	-13598.789676
219557-219658	-3984.261173	-3986.130205	-3993.676349
219659-219747	-5963.353401	-5960.208816	-5962.080705
219748-219889	-4342.757286	-4340.175085	-4342.547457
219890-219993	-5570.506878	-5566.059431	-5572.278622
219994-220157	-8122.820806	-8130.131539	-8141.613784
220158-220361	-9383.565968	-9394.995742	-9394.953117
220362-220522	-8156.435256	-8152.340354	-8154.170139
220523-220678	-7868.863125	-7865.041873	-7865.786789
220679-220850	-8363.112002	-8360.481145	-8364.53501
220851-221946	-48134.81158	-48181.582439	-48181.018029
221947-222431	-23430.256667	-23444.056315	-23446.161873
222432-222528	-5173.9689	-5174.112946	-5173.955115
222529-222876	-18488.168202	-18494.716234	-18496.901356
222877-223082	-14330.843901	-14337.691449	-14352.272181
223083-223234	-8533.472969	-8550.267399	-8554.677161
223235-223453	-12522.04434	-12528.648087	-12529.448313
223454-223603	-7792.72834	-7793.903801	-7811.812889
223604-223942	-16989.092802	-16994.801688	-16992.341173
223943-224075	-7770.900925	-7771.320056	-7775.677647
224076-224494	-15190.591912	-15202.408296	-15207.108728
224495-224592	-6047.811206	-6048.828704	-6046.092375
224593-224798	-8963.661255	-8967.602421	-8968.318416
224799-225021	-10443.855419	-10470.272512	-10471.436948
225022-225392	-15379.728714	-15379.42369	-15394.522991
225393-225667	-11142.124088	-11136.673923	-11142.664515
225668-225923	-11301.153964	-11304.718144	-11307.57633
225924-226199	-16580.410602	-16585.775663	-16590.99253
226200-226367	-9159.946073	-9166.375365	-9180.805286
226368-226826	-18226.857536	-18220.669099	-18227.184538
226827-227085	-13306.80979	-13314.07011	-13338.105469
227086-227362	-13605.473156	-13607.337584	-13609.752816
227363-227587	-13062.860826	-13070.272036	-13075.40648
227588-227701	-7057.992319	-7056.672423	-7058.558074
227702-228011	-18027.522434	-18024.675296	-18033.129919
228012-228275	-18042.30898	-18037.355244	-18045.231086
228276-228768	-21169.199709	-21188.139096	-21194.188126
228769-228976	-13759.172153	-13766.051439	-13769.215055
228977-229087	-7002.345436	-7000.471679	-7008.326289
229088-229535	-18288.326148	-18298.199156	-18287.489022
229536-229798	-14548.629535	-14562.251429	-14574.4602
229799-229975	-7172.170584	-7177.914213	-7172.615194
229976-230260	-10966.86908	-10968.220364	-10973.369464
230261-230457	-11918.278245	-11919.999468	-11922.753671
230458-230773	-20572.729251	-20576.812282	-20582.279025
230774-230881	-7586.950765	-7582.495501	-7587.59846
230882-231199	-19943.882605	-19945.511455	-19955.371609
231200-231366	-9447.915459	-9483.908311	-9511.910926
231367-231519	-7919.911237	-7934.701361	-7937.84077
231520-231726	-12959.561704	-12946.413778	-12963.102432
231727-232296	-27558.89454	-27562.795913	-27557.757441
232297-232471	-7875.155328	-7898.507112	-7898.359126
232472-232628	-8084.907807	-8085.699706	-8086.295932
232629-232811	-6156.145943	-6172.098708	-6187.826869
232812-232936	-5615.550847	-5608.282424	-5610.771924
232937-233053	-8241.014037	-8245.812618	-8249.499415
233054-233154	-6794.766261	-6794.452268	-6796.240722
233155-233377	-13798.472309	-13788.623717	-13793.428366
233378-233808	-16279.299043	-16271.713873	-16318.387156
233809-234403	-25428.832442	-25448.029314	-25464.01847
234404-234571	-6677.610608	-6673.935942	-6676.875721
234572-234651	-3908.590225	-3907.387222	-3914.913877
234652-235004	-17014.674904	-17014.209585	-17029.964677
235005-235358	-13630.783337	-13642.890765	-13638.863309
235359-235657	-10135.316143	-10137.72477	-10137.092511
235658-235871	-14126.655519	-14122.677397	-14139.738626
235872-236017	-8782.434798	-8787.899163	-8787.294402
236018-236429	-22911.435409	-22908.382724	-22912.064066
236430-236896	-24156.274726	-24171.271837	-24179.118772
236897-237304	-19476.488332	-19487.467613	-19495.667219
237305-237463	-12243.561535	-12239.368228	-12261.086478
237464-237689	-17407.129499	-17399.148372	-17406.17137
237690-237849	-7435.419268	-7437.741952	-7442.253928
237850-238052	-11868.386379	-11852.961522	-11892.459587
238053-238147	-4096.756234	-4094.346222	-4098.403309
238148-238515	-18966.837091	-18975.672308	-19001.809935
238516-238836	-15895.783969	-15904.724272	-15906.64955
238837-238969	-4554.063922	-4554.962973	-4554.508108
238970-239240	-19717.789879	-19739.378921	-19751.088537
239241-239563	-19712.253625	-19717.599249	-19727.376175
239564-239868	-20355.197428	-20378.55903	-20397.293405
239869-239993	-6636.794778	-6647.863021	-6687.159874
239994-240163	-9087.196971	-9081.6321	-9084.459434
240164-240289	-6185.627469	-6191.352999	-6184.416474
240290-240406	-5664.878893	-5662.785168	-5668.740259
240407-240499	-4370.711143	-4373.925136	-4380.528455
240500-240584	-3355.050625	-3354.056314	-3354.817914
240585-240884	-17924.799682	-17937.586197	-17947.658907
240885-241002	-6663.134508	-6662.591047	-6670.353857
241003-241440	-23529.248163	-23536.22632	-23553.639767
241441-241577	-5688.875226	-5686.021453	-5689.693756
241578-241749	-10251.927316	-10251.176489	-10256.980215
241750-241900	-10200.776192	-10207.029192	-10204.896772
241901-242151	-12747.672183	-12784.184919	-12784.08116
242152-242419	-11785.599915	-11805.98017	-11804.337832
242420-242583	-5871.219057	-5874.955082	-5872.570381
242584-242756	-8819.060736	-8822.546094	-8838.649959
242757-242970	-13395.106151	-13414.387707	-13435.698068
242971-243088	-6123.824001	-6131.389902	-6126.607917
243089-243200	-7414.939391	-7415.747566	-7416.474304
243201-243370	-11081.908317	-11079.232008	-11087.947546
243371-243602	-12778.31244	-12778.349202	-12786.383849
243603-243838	-12494.544001	-12517.225571	-12519.120541
243839-244119	-13962.490539	-13968.033907	-13970.696736
244120-244609	-25617.213405	-25621.000069	-25653.719091
244610-244812	-10442.777345	-10441.612326	-10443.524999
244813-245083	-16961.637067	-16958.352742	-16963.793566
245084-245285	-10779.210477	-10776.971821	-10795.376556
245286-245418	-8641.551544	-8639.557647	-8644.306429
245419-245514	-5756.242354	-5758.408731	-5757.504024
245515-245632	-5778.183451	-5784.076879	-5778.127469
245633-245986	-18023.174642	-18024.063899	-18035.255937
245987-246104	-7960.128891	-7966.398454	-7968.599448
246105-246194	-4532.871575	-4529.42798	-4538.585009
246195-246459	-16498.579186	-16505.371624	-16516.435209
246460-246563	-7445.312214	-7436.076369	-7452.299443
246564-246845	-17369.48989	-17366.362911	-17389.087781
246846-246983	-7617.482756	-7619.610602	-7620.187109
246984-247181	-10244.756721	-10247.954659	-10250.986328
247182-247570	-21459.195013	-21470.342589	-21476.912488
247571-247777	-9744.478368	-9798.413622	-9799.3335
247778-247899	-6540.811135	-6554.134944	-6549.22244
247900-248025	-6746.36001	-6749.923497	-6749.619273
248026-248500	-23762.059141	-23771.251908	-23760.928611
248501-248889	-14788.470017	-14829.310174	-14831.374909
248890-248975	-4836.948852	-4841.998959	-4842.489795
248976-249322	-20884.667686	-20890.511098	-20916.165897
249323-249406	-3631.890341	-3633.25893	-3632.217668
249407-249763	-17574.252878	-17595.997538	-17571.832009
249764-249909	-8509.445027	-8539.061217	-8544.835624
249910-250146	-10629.470559	-10620.6499	-10630.652951
250147-250390	-11885.276667	-11884.178087	-11893.198231
250391-250485	-4180.114988	-4180.944673	-4180.720636
250486-250741	-14743.509485	-14741.736958	-14746.279126
250742-251088	-18584.754535	-18579.270522	-18599.344422
251089-251339	-11984.78235	-11992.292881	-11986.037784
251340-251496	-9940.268231	-9946.49066	-9943.858618
251497-251640	-7651.681884	-7653.158173	-7657.680904
251641-251906	-11790.998515	-11796.146549	-11799.855104
251907-251993	-6169.607989	-6166.640981	-6171.695367
251994-252160	-9375.645202	-9380.961975	-9384.255561
252161-252262	-6303.676829	-6300.699918	-6305.384385
252263-252410	-9648.478779	-9646.73749	-9656.333509
252411-252601	-10693.807896	-10701.904679	-10706.871068
252602-252709	-5568.793311	-5573.822663	-5575.397591
252710-252829	-7363.595053	-7365.502963	-7366.628593
252830-252936	-7230.879134	-7246.018532	-7250.895814
252937-253066	-7986.28208	-7991.441201	-7987.10408
253067-253194	-6028.323585	-6029.588538	-6032.438734
253195-253437	-12460.550303	-12470.128682	-12480.910322
253438-253646	-10936.492887	-10938.875237	-10940.049878
253647-253858	-12762.864934	-12756.315847	-12763.113011
253859-253947	-5783.06258	-5788.588296	-5790.171729
253948-254035	-4636.352758	-4648.021753	-4647.204848
254036-254196	-8242.227382	-8253.281822	-8258.695168
254197-254388	-9089.058408	-9086.96491	-9093.704392
254389-254606	-12126.679809	-12125.369689	-12143.487133
254607-254747	-8806.331842	-8816.257734	-8810.623668
254748-255006	-11799.411814	-11803.512142	-11820.647448
255007-255205	-10738.348316	-10733.370117	-10740.739281
255206-255304	-4558.470954	-4558.266368	-4573.733483
255305-255420	-6799.138026	-6801.410742	-6802.922909
255421-255520	-4988.160613	-4989.052364	-4989.157523
255521-255630	-6572.068546	-6572.978411	-6575.870612
255631-255747	-6043.163398	-6054.268399	-6053.92183
255748-255877	-7495.514178	-7492.291015	-7494.577035
255878-255970	-7325.400141	-7326.70448	-7330.437463
255971-256256	-7630.404864	-7646.093092	-7647.997544
256257-256387	-7018.993813	-7021.205359	-7022.42075
256388-256530	-7453.448057	-7453.602576	-7457.172213
256531-256713	-11769.294192	-11780.550508	-11784.752928
256714-257240	-31130.820215	-31130.007493	-31129.621534
257241-257399	-9471.097764	-9474.842667	-9481.54404
257400-257732	-18565.503833	-18557.488092	-18574.950311
257733-258036	-19213.432974	-19214.093139	-19222.917797
258037-258405	-18109.160473	-18101.670503	-18111.338021
258406-258612	-10076.673589	-10077.162082	-10083.938172
258613-258727	-7199.482973	-7199.954485	-7207.814109
258728-258929	-9001.626	-9001.649011	-9001.733405
258930-259032	-5436.654462	-5436.501841	-5435.924043
259033-259317	-17191.015086	-17189.581246	-17223.522895
259318-259512	-7674.033558	-7672.100529	-7672.973047
259513-259629	-4308.618125	-4311.167661	-4311.381171
259630-259966	-19233.424642	-19261.290406	-19284.371881
259967-260104	-7842.523729	-7843.624815	-7847.849345
260105-260503	-21689.804841	-21697.066757	-21692.99444
260504-260641	-6973.35111	-6967.153766	-6974.446164
260642-260920	-13968.273807	-13963.045182	-13979.171761
260921-261055	-6275.172585	-6315.651641	-6332.232335
261056-261324	-8857.506025	-8872.526632	-8872.400583
261325-261530	-8955.165022	-8958.196036	-8956.736857
261531-261758	-8879.010659	-8879.662794	-8890.605519
261759-262248	-25141.966749	-25150.010103	-25142.131782
262249-262412	-10499.947208	-10492.872891	-10500.763199
262413-262556	-8604.276347	-8604.291738	-8608.080651
262557-262759	-12613.125757	-12621.213426	-12637.382248
262760-262853	-4288.415372	-4288.069609	-4289.545543
262854-263065	-11961.018503	-11973.380021	-11986.109198
263066-263258	-12415.37007	-12424.000636	-12427.41336
263259-263494	-14568.257098	-14568.774005	-14577.268962
263495-263607	-7029.663087	-7034.891188	-7040.252635
263608-263814	-14201.621244	-14203.776285	-14207.829879
263815-264173	-15710.854122	-15707.964439	-15711.382007
264174-264390	-13561.829434	-13560.222388	-13575.980134
264391-264532	-6464.966235	-6461.654123	-6470.65989
264533-264806	-16008.448447	-16010.257459	-16010.121545
264807-264987	-7863.377959	-7858.509987	-7865.579536
264988-265114	-7106.587071	-7122.922302	-7146.745891
265115-265300	-9310.682789	-9317.637954	-9315.558313
265301-265479	-7788.178745	-7780.893732	-7790.9206
265480-265928	-25669.148015	-25665.247901	-25710.070869
265929-266052	-6305.27023	-6310.405466	-6321.310532
266053-266150	-7442.49337	-7436.914451	-7441.375618
266151-266502	-19613.66674	-19642.435532	-19611.420212
266503-266700	-11461.428541	-11451.246467	-11464.551318
266701-266898	-9572.838563	-9580.907339	-9585.418839
266899-267043	-9087.030038	-9077.296436	-9081.219581
267044-267123	-4998.516973	-5000.526918	-5002.534204
267124-267512	-19512.359146	-19512.204296	-19520.004175
267513-267648	-6555.106219	-6560.677366	-6562.554761
267649-267774	-9134.519453	-9139.421938	-9141.402182
267775-267871	-5378.340286	-5377.12435	-5379.332416
267872-268091	-11268.818585	-11281.207778	-11284.3241
268092-268248	-7602.485391	-7605.451654	-7607.195037
268249-268369	-5655.391932	-5658.610789	-5658.379798
268370-268605	-12320.064437	-12332.246468	-12342.353479
268606-268691	-4275.098313	-4275.146409	-4272.088646
268692-268822	-8912.592322	-8913.730339	-8915.228132
268823-269088	-13799.690392	-13805.203955	-13814.707108
269089-269198	-6601.184099	-6601.46078	-6600.526114
269199-269486	-13052.110213	-13049.588394	-13052.20331
269487-269734	-14434.019002	-14438.404377	-14448.422065
269735-269912	-7673.581551	-7680.69276	-7682.29364
269913-270006	-5471.506115	-5482.491474	-5486.50079
270007-270212	-12958.771753	-12973.253923	-12978.770352
270213-270454	-10697.045165	-10699.382174	-10707.044834
270455-270647	-12304.195314	-12300.516308	-12309.584836
270648-270740	-6137.982187	-6137.893351	-6138.013381
270741-270850	-7030.009838	-7066.753847	-7082.529628
270851-271021	-7968.285423	-7967.566483	-7976.765355
271022-271482	-27284.483675	-27286.079144	-27333.344786
271483-271684	-9713.877137	-9713.804924	-9717.643838
271685-271876	-9157.609796	-9151.163598	-9164.090223
271877-272232	-18347.417032	-18360.006798	-18369.410339
272233-272755	-26598.432781	-26599.257922	-26631.10152
272756-272953	-11882.690063	-11880.825576	-11880.988598
272954-273305	-18044.826058	-18041.684032	-18052.59244
273306-273435	-8376.230514	-8386.117404	-8384.540093
273436-273534	-7896.84409	-7889.322562	-7903.136183
273535-273654	-6652.245031	-6650.465733	-6655.643519
273655-273994	-17945.216456	-17942.176386	-17952.786108
273995-274086	-3200.473709	-3206.725582	-3209.342506
274087-274243	-11021.347436	-11025.56025	-11030.036915
274244-274392	-7035.026975	-7047.230032	-7047.548047
274393-274553	-6421.210106	-6417.449834	-6427.391407
274554-274744	-10879.487158	-10889.327975	-10893.79744
274745-275056	-15262.97303	-15268.52577	-15273.346802
275057-275237	-10731.315221	-10744.488534	-10749.937513
275238-275477	-8518.234446	-8514.422328	-8531.058839
275478-275652	-9805.451014	-9814.539422	-9835.365586
275653-275828	-10409.017885	-10405.826096	-10405.591287
275829-275936	-5971.535164	-5980.205986	-5984.031298
275937-276120	-9646.121767	-9646.500306	-9644.512199
276121-276202	-5039.296695	-5041.336043	-5040.238712
276203-276435	-13266.345485	-13255.535217	-13268.107299
276436-276544	-6666.348748	-6664.041961	-6663.46893
276545-276686	-4630.789246	-4630.939303	-4634.7706
276687-276941	-19455.16107	-19484.61626	-19497.817439
276942-277144	-13065.932906	-13065.960364	-13067.119841
277145-277292	-8083.476141	-8081.663641	-8087.660068
277293-277372	-3032.648424	-3036.65185	-3034.022076
277373-277568	-12397.04363	-12447.761482	-12455.026895
277569-277710	-7953.813582	-7956.517471	-7961.736193
277711-277850	-6191.15796	-6188.045663	-6190.647947
277851-277967	-7916.676515	-7917.470577	-7919.294866
277968-278172	-11401.323087	-11407.375492	-11404.869464
278173-278492	-15413.181117	-15420.734236	-15437.754961
278493-278624	-6373.545994	-6373.53971	-6375.530101
278625-278868	-15547.260083	-15557.680244	-15574.479571
278869-279127	-8567.912338	-8595.622394	-8617.018481
279128-279534	-10702.741004	-10703.334463	-10700.491341
279535-279706	-8983.314155	-8976.459539	-8986.920703
279707-279885	-12107.739587	-12114.177278	-12123.531492
279886-280085	-11415.072903	-11421.699128	-11422.538643
280086-280469	-13516.314244	-13517.923117	-13527.573279
280470-280573	-4730.118301	-4737.869452	-4741.017067
280574-280738	-6434.986418	-6434.12743	-6434.59766
280739-280918	-8873.087333	-8870.18222	-8879.811587
280919-281009	-4741.007978	-4748.060619	-4746.31882
281010-281122	-7135.003736	-7132.194769	-7140.456409
281123-281270	-9074.186449	-9069.732525	-9070.907385
281271-281551	-14456.331474	-14466.071884	-14467.994095
281552-281751	-9077.791069	-9076.579756	-9079.402467
281752-282062	-11107.72018	-11102.052431	-11107.931016
282063-282436	-13209.280499	-13202.534706	-13211.30433
282437-282689	-13065.866828	-13067.467706	-13064.757457
282690-282889	-9070.130004	-9088.496937	-9085.631011
282890-283014	-6561.065141	-6566.321936	-6565.854543
283015-283171	-7245.615621	-7243.294022	-7247.540112
283172-283378	-10996.155843	-10987.146739	-10996.575469
283379-283578	-10260.89272	-10251.260945	-10259.814062
283579-283752	-7412.863677	-7406.109256	-7412.520232
283753-284147	-15615.662314	-15631.286268	-15614.191576
284148-284360	-11428.412775	-11469.600888	-11472.451551
284361-284725	-19526.260557	-19514.677819	-19529.815772
284726-284871	-6965.428814	-6959.563769	-6965.477236
284872-285063	-9917.536671	-9909.623389	-9932.98593
285064-285276	-8724.306986	-8766.114333	-8780.878487
285277-285428	-10499.899062	-10491.191772	-10506.985911
285429-285613	-11095.516756	-11103.526611	-11099.906024
285614-285791	-10095.126487	-10097.85528	-10091.180378
285792-285971	-9382.764293	-9379.931857	-9381.707898
285972-286057	-5613.785061	-5611.847686	-5611.92146
286058-286146	-4954.522463	-4954.346808	-4954.565122
286147-286293	-6515.956374	-6517.008813	-6516.191481
286294-286497	-10402.02197	-10393.994799	-10399.478105
286498-286660	-10140.580372	-10148.740214	-10151.920793
286661-286840	-8274.478811	-8282.775435	-8281.253186
286841-286924	-5640.763842	-5642.855965	-5644.960626
286925-287080	-7476.844805	-7478.02744	-7486.159564
287081-287294	-10050.621066	-10060.798226	-10064.282472
287295-287516	-9672.065247	-9682.286221	-9677.327781
287517-287668	-9605.939387	-9611.071627	-9610.886023
287669-287781	-6833.991602	-6841.58157	-6846.356208
287782-287924	-7608.779812	-7609.467152	-7617.923214
287925-288022	-4688.542674	-4688.252649	-4687.144019
288023-288189	-6395.305235	-6406.581968	-6409.263902
288190-288314	-6685.226441	-6697.66058	-6694.988526
288315-288466	-7907.379074	-7903.228851	-7912.540888
288467-288589	-7201.56318	-7205.51954	-7212.534734
288590-288676	-4368.931159	-4368.35395	-4371.028036
288677-288826	-5524.582197	-5526.548307	-5526.754451
288827-288910	-5447.590701	-5449.415973	-5452.328249
288911-288995	-5246.250351	-5245.219091	-5248.606086
288996-289171	-7687.274476	-7684.83257	-7692.004234
289172-289509	-21954.88888	-21960.615993	-21991.673576
289510-289682	-7476.6686	-7470.691488	-7476.936547
289683-289905	-14039.919363	-14052.051847	-14053.551176
289906-289998	-5712.186414	-5709.639854	-5718.385856
289999-290086	-4568.422579	-4561.875187	-4572.522861
290087-290357	-15936.997299	-15927.417332	-15944.632989
290358-290678	-19093.7695	-19100.740152	-19114.818873
290679-290781	-6518.733086	-6519.406702	-6520.559298
290782-290947	-9525.652066	-9530.888084	-9545.852961
290948-291099	-6912.920628	-6913.03447	-6911.912573
291100-291270	-9567.108687	-9569.157767	-9568.675197
291271-291681	-19184.102368	-19203.847669	-19202.920397
291682-292224	-30170.266468	-30158.722802	-30174.57564
292225-292324	-3461.25685	-3461.805086	-3461.600953
292325-292432	-3321.848547	-3334.332571	-3332.913948
292433-292610	-8693.528273	-8702.396317	-8703.915772
292611-292768	-9642.527407	-9645.172111	-9642.774632
292769-292975	-5791.318649	-5794.809516	-5788.402368
292976-293313	-16563.835746	-16562.09593	-16580.978803
293314-293411	-4839.688004	-4837.300858	-4841.075697
293412-293825	-20402.634477	-20408.594063	-20403.417116
293826-293978	-8380.021915	-8380.142362	-8388.739195
293979-294216	-13376.453275	-13377.342802	-13377.817216
294217-294345	-7362.097042	-7374.484258	-7378.724535
294346-294508	-7600.810338	-7594.980608	-7605.44478
294509-294760	-19498.566767	-19502.809047	-19510.738635
294761-294870	-5226.223976	-5235.299111	-5236.797989
294871-295005	-7200.352258	-7204.141068	-7213.51669
295006-295108	-4325.782109	-4326.440556	-4329.675108
295109-295212	-5065.957073	-5063.972371	-5064.397834
295213-295374	-4275.386135	-4277.691087	-4281.548373
295375-295580	-11595.605079	-11612.174644	-11638.02594
295581-295734	-10427.705992	-10439.373343	-10449.397345
295735-295888	-9662.467268	-9664.203484	-9665.319665
295889-296207	-14402.395756	-14447.152106	-14462.722954
296208-296457	-10954.820366	-10954.547986	-10960.278751
296458-296560	-5884.684646	-5882.97456	-5884.70919
296561-297058	-29064.440764	-29069.539452	-29064.94991
297059-297164	-6447.615448	-6444.868667	-6451.172835
297165-297384	-11651.736007	-11652.579152	-11657.075468
297385-297537	-10514.273849	-10527.746053	-10524.337353
297538-297664	-8682.579142	-8684.431696	-8686.5481
297665-297880	-12864.29938	-12860.739212	-12866.376546
297881-298022	-8492.505624	-8495.871175	-8502.16804
298023-298166	-8033.680261	-8030.570173	-8031.349626
298167-298311	-9147.697365	-9179.026424	-9180.201095
298312-298744	-23467.34514	-23467.527265	-23474.581443
298745-299159	-10878.797718	-10886.800661	-10896.893702
299160-299318	-7452.522912	-7449.657102	-7458.555332
299319-299583	-14475.834513	-14469.405815	-14508.869976
299584-299763	-11980.440568	-11979.371275	-11995.660167
299764-299878	-8152.916447	-8157.300804	-8156.215002
299879-300114	-14164.055629	-14185.020805	-14206.259378
300115-300278	-7462.710295	-7465.910595	-7481.5508
300279-300442	-8675.270973	-8673.082308	-8679.599576
300443-300677	-8304.571421	-8306.201091	-8308.091028
300678-301055	-21703.532129	-21709.370369	-21717.166005
301056-301298	-13921.750271	-13923.347683	-13930.990804
301299-301437	-7804.576461	-7798.08725	-7819.291492
301438-301617	-9439.331819	-9445.664222	-9446.670788
301618-301772	-6103.685587	-6105.446499	-6106.632622
301773-302018	-15013.023027	-15017.908006	-15020.336095
302019-302106	-7728.18029	-7726.608209	-7730.250517
302107-302338	-10676.838633	-10673.278047	-10693.393421
302339-302445	-7713.84524	-7719.62255	-7739.034586
302446-302760	-12843.502384	-12849.688776	-12853.956182
302761-303093	-17442.455853	-17440.527998	-17469.623531
303094-303395	-14653.770107	-14671.103265	-14673.770635
303396-303541	-5891.440042	-5890.942578	-5894.839852
303542-303858	-19891.367579	-19948.505553	-19953.949158
303859-303965	-5807.022716	-5816.234032	-5821.065079
303966-304193	-12547.591085	-12550.725286	-12561.819435
304194-304330	-7008.152614	-7009.542262	-7010.658477
304331-304522	-8376.444647	-8378.532881	-8376.209823
304523-304659	-8269.876382	-8287.072315	-8293.571843
304660-304823	-10018.788667	-10041.892229	-10048.2936
304824-304939	-7117.380446	-7117.431744	-7120.950803
304940-305098	-7440.635842	-7445.36155	-7452.328604
305099-305449	-17181.351796	-17209.799351	-17217.20543
305450-305653	-7629.696377	-7634.090508	-7640.324488
305654-305888	-9128.701304	-9125.504752	-9130.443764
305889-306133	-12697.098592	-12700.190496	-12709.159827
306134-306238	-6163.568955	-6165.066301	-6164.321074
306239-306438	-9665.171328	-9662.345838	-9674.079057
306439-306568	-9170.551017	-9173.034059	-9178.020254
306569-306705	-10698.424627	-10711.666055	-10716.730272
306706-306849	-8462.654688	-8470.194159	-8473.431656
306850-306954	-7384.505895	-7378.816806	-7391.629284
306955-307094	-8473.743857	-8490.6474	-8497.360284
307095-307278	-10969.818775	-10944.776756	-10976.213619
307279-307457	-10498.423518	-10504.099807	-10513.092389
307458-307599	-8215.51547	-8212.939352	-8216.877154
307600-307875	-12210.29305	-12221.284117	-12217.32468
307876-308007	-7089.327148	-7090.748049	-7096.771306
308008-308161	-9171.817664	-9163.444824	-9166.594496
308162-308281	-9592.796235	-9592.528589	-9591.845953
308282-308526	-14245.067794	-14242.699914	-14245.347721
308527-308663	-9279.813366	-9275.171187	-9284.04815
308664-308766	-5203.693524	-5203.090838	-5209.397013
308767-308924	-8133.616158	-8122.350493	-8137.664638
308925-309153	-12998.918799	-13013.561863	-13012.748965
309154-309357	-12780.091669	-12784.985563	-12785.058829
309358-309481	-8471.257947	-8469.385745	-8476.231735
309482-309566	-4409.598336	-4410.709877	-4412.351311
309567-309718	-6422.489188	-6420.786685	-6430.390668
309719-309874	-8994.939579	-9024.587264	-9035.869416
309875-309984	-6966.450926	-6972.789528	-6974.994895
309985-310188	-14262.877824	-14286.3266	-14294.686231
310189-310363	-9912.936502	-9916.00923	-9917.306828
310364-310484	-6978.702416	-6975.645043	-6976.803829
310485-310591	-5158.262623	-5155.728398	-5161.152873
310592-310736	-7006.652731	-7008.391527	-7023.841947
310737-310899	-11093.709343	-11099.534705	-11098.986108
310900-311133	-14945.450148	-14948.755455	-14965.32589
311134-311249	-5512.850052	-5513.289032	-5512.325761
311250-311384	-6154.288464	-6156.271618	-6157.632517
311385-311539	-7976.954492	-7979.803633	-7983.884473
311540-311744	-12717.619799	-12719.359229	-12740.674813
311745-311871	-4595.095861	-4588.846443	-4585.490224
311872-312078	-13006.09709	-13017.263781	-13022.855609
312079-312378	-17904.367031	-17895.278394	-17909.14568
312379-312695	-12095.878297	-12091.71807	-12097.490055
312696-312917	-6285.274861	-6281.638126	-6285.425691
312918-313028	-5676.442561	-5679.84132	-5681.890338
313029-313160	-6319.056417	-6315.090888	-6322.656213
313161-313333	-12555.629522	-12552.905493	-12557.630633
313334-313677	-16775.599629	-16782.752718	-16790.203559
313678-313973	-16513.466569	-16511.150257	-16514.795452
313974-314149	-9255.466272	-9260.063701	-9255.215061
314150-314380	-14577.017761	-14573.507463	-14573.971704
314381-314691	-9610.133986	-9609.852695	-9608.961029
314692-314862	-10474.546092	-10474.533005	-10480.67106
314863-315013	-8267.929402	-8292.256415	-8292.154767
315014-315127	-8298.161578	-8297.841664	-8298.135494
315128-315361	-10038.138937	-10045.929704	-10052.811972
315362-315488	-6659.265225	-6660.461469	-6666.255406
315489-315575	-4829.808293	-4828.098826	-4829.508596
315576-315972	-15438.289107	-15434.529675	-15434.704834
315973-316191	-8721.207285	-8728.441237	-8736.731651
316192-316318	-6416.662892	-6411.804626	-6418.802914
316319-316467	-8531.211259	-8523.877999	-8530.677818
316468-316613	-9191.890666	-9191.641074	-9195.052932
316614-316719	-5324.836048	-5335.234349	-5338.291397
316720-316982	-13694.922226	-13702.813931	-13701.101176
316983-317109	-7226.923608	-7227.036358	-7226.57684
317110-317240	-7175.170937	-7186.527814	-7184.371528
317241-317351	-5582.583516	-5579.976872	-5582.676374
317352-317459	-5921.184651	-5922.417052	-5921.342358
317460-317700	-16678.319084	-16684.798155	-16676.700407
317701-317822	-7937.030112	-7942.313868	-7953.09998
317823-317925	-6047.464143	-6046.995059	-6052.702569
317926-318047	-5700.939691	-5705.574352	-5705.269371
318048-318139	-5146.492644	-5148.434654	-5148.226667
318140-318225	-2695.293605	-2698.655254	-2695.256694
318226-318347	-6923.450154	-6925.1727	-6931.4022
318348-318481	-8314.82378	-8309.228493	-8316.227332
318482-318581	-5776.860602	-5775.926734	-5782.737168
318582-318719	-8639.187416	-8667.376248	-8670.208981
318720-318814	-5740.924399	-5748.931322	-5754.198138
318815-318924	-6464.852791	-6466.130551	-6467.792769
318925-319014	-4291.849273	-4292.666338	-4291.746537
319015-319108	-5259.833044	-5267.329912	-5261.36268
319109-319214	-6949.827183	-6952.091697	-6950.41938
319215-319554	-17325.815497	-17332.021643	-17344.496406
319555-319786	-12719.051053	-12716.355517	-12721.408223
319787-319891	-6921.301488	-6920.15701	-6920.944462
319892-320123	-10319.358236	-10314.048157	-10328.553906
320124-320330	-7383.541074	-7389.169888	-7400.15815
320331-320418	-4158.759848	-4159.188473	-4162.657991
320419-320598	-9483.790723	-9487.007518	-9488.522535
320599-320792	-10324.127597	-10322.659187	-10336.233194
320793-320884	-4421.54118	-4427.087883	-4427.948859
320885-321070	-7912.525191	-7922.8444	-7922.598258
321071-321159	-4974.350214	-4980.130037	-4980.392948
321160-321305	-8686.185285	-8686.151831	-8683.12263
321306-321494	-7975.915284	-7981.839102	-7988.757447
321495-321637	-6023.078327	-6024.153318	-6012.516096
321638-321727	-5441.431444	-5445.943029	-5442.401232
321728-321808	-4964.68698	-4967.0537	-4967.477927
321809-322012	-9429.378187	-9432.354671	-9431.392541
322013-322117	-6919.321452	-6912.174012	-6921.417579
322118-322206	-5441.958724	-5442.805375	-5441.595117
322207-322448	-16923.364605	-16931.76915	-16951.387212
322449-322542	-6324.454515	-6324.397362	-6322.953053
322543-322637	-4930.926545	-4936.76443	-4937.227635
322638-322861	-12092.213123	-12097.938982	-12098.745871
322862-322998	-9168.014745	-9171.805484	-9171.23292
322999-323268	-12735.170257	-12750.147	-12756.389667
323269-323395	-5911.498796	-5911.801743	-5912.055199
323396-323603	-11753.959198	-11752.28003	-11755.296822
323604-323772	-9361.875461	-9365.73655	-9373.943573
323773-323880	-6533.403582	-6536.036349	-6535.28178
323881-324207	-17733.120024	-17736.398541	-17732.500936
324208-324421	-10067.540054	-10068.371868	-10073.015108
324422-324514	-3997.534745	-3996.815081	-3997.05954
324515-324663	-7541.505996	-7546.053591	-7544.73844
324664-324763	-5526.219218	-5522.043522	-5525.814536
324764-324926	-10122.242618	-10122.442539	-10128.920852
324927-325010	-3346.141314	-3345.459189	-3346.339309
325011-325177	-8317.671276	-8323.835755	-8319.069752
325178-325332	-9465.544655	-9465.250154	-9475.5569
325333-325511	-7875.841149	-7871.232065	-7875.902266
325512-325709	-10317.084873	-10326.191612	-10321.584303
325710-325792	-5108.378894	-5109.134524	-5116.788469
325793-325969	-9901.961397	-9904.845437	-9904.969019
325970-326092	-7529.183347	-7539.268618	-7539.045312
326093-326237	-7537.752255	-7535.162791	-7540.896036
326238-326332	-4977.031813	-4973.079425	-4973.375444
326333-326487	-7864.615364	-7875.664626	-7872.563187
326488-326578	-5439.903965	-5442.784012	-5449.5255
326579-326914	-14903.537143	-14904.002898	-14919.28268
326915-327085	-11415.363781	-11414.594709	-11420.532744
327086-327188	-6372.367886	-6371.390281	-6373.707318
327189-327305	-8319.055348	-8335.218706	-8347.988297
327306-327478	-7364.728734	-7368.406586	-7377.878378
327479-327606	-6118.467134	-6117.299897	-6116.949879
327607-327802	-9578.414511	-9590.804079	-9592.456846
327803-327970	-8524.491349	-8539.454412	-8537.800087
327971-328112	-3837.565475	-3834.531655	-3839.342958
328113-328228	-8106.160148	-8104.41698	-8103.157465
328229-328364	-8205.089294	-8215.050374	-8213.40457
328365-328513	-9461.405691	-9467.885376	-9469.217243
328514-328684	-7738.146247	-7748.953179	-7749.255251
328685-328987	-14616.096458	-14627.991264	-14628.779606
328988-329091	-6090.639184	-6094.049823	-6094.623302
329092-329197	-5408.958712	-5417.455026	-5415.633506
329198-329354	-8221.582192	-8223.183105	-8236.959207
329355-329511	-11036.082816	-11041.416335	-11058.843583
329512-329799	-10465.039488	-10449.243442	-10447.348459
329800-330020	-15645.197916	-15649.949778	-15656.030024
330021-330240	-11468.216562	-11470.913932	-11473.228613
330241-330392	-6721.151551	-6717.086002	-6727.313246
330393-330479	-5209.434975	-5206.159839	-5207.234701
330480-330676	-9634.236322	-9638.338444	-9638.098194
330677-330771	-7300.230377	-7297.925812	-7301.461105
330772-330881	-4052.477449	-4061.457949	-4056.947314
330882-331021	-10427.019795	-10422.412538	-10444.468057
331022-331241	-9084.513042	-9127.501134	-9128.971178
331242-331407	-7043.693104	-7060.19248	-7058.900397
331408-331496	-5205.711118	-5200.476929	-5210.341268
331497-331590	-5299.11302	-5302.970892	-5304.643063
331591-331687	-5234.901159	-5231.697231	-5232.694716
331688-331801	-5448.76088	-5448.512426	-5447.324235
331802-332049	-15799.706836	-15806.234259	-15821.362984
332050-332148	-5775.651463	-5775.450398	-5777.353374
332149-332325	-13707.319458	-13702.834301	-13722.750565
332326-332517	-10275.735234	-10273.732543	-10277.137678
332518-332622	-6673.916889	-6673.618227	-6678.960649
332623-332740	-8942.394023	-8938.541105	-8946.546238
332741-332891	-9997.66217	-10004.590689	-10025.180033
332892-333041	-6544.562395	-6544.181866	-6552.151292
333042-333148	-3933.756901	-3978.658088	-3964.71591
333149-333512	-21955.479945	-21947.918864	-22012.055297
333513-333639	-8371.816195	-8366.090523	-8369.840021
333640-333731	-5903.711243	-5910.404912	-5911.493776
333732-333859	-8064.909706	-8062.515741	-8073.924388
333860-334026	-5930.405678	-5943.654505	-5939.835974
334027-334182	-7208.263779	-7210.653529	-7216.741782
334183-334452	-11322.250475	-11327.935314	-11326.023379
334453-334557	-5688.881458	-5693.571841	-5705.905031
334558-334845	-12388.680605	-12401.674374	-12407.88532
334846-335076	-11144.776983	-11139.959104	-11145.236809
335077-335221	-11082.410591	-11080.445539	-11085.137138
335222-335306	-4973.411963	-4963.8515	-4981.629687
335307-335417	-6236.701386	-6242.250646	-6236.933311
335418-335532	-5520.103742	-5549.590613	-5557.627778
335533-335726	-10362.344086	-10356.065076	-10362.772011
335727-336175	-18481.713243	-18480.579409	-18482.159633
336176-336373	-12946.969036	-12957.975812	-12968.686577
336374-336651	-18435.837327	-18439.027904	-18436.721842
336652-337015	-20551.524819	-20548.963438	-20549.557402
337016-337272	-17092.941543	-17103.322736	-17108.609062
337273-337487	-9909.490741	-9915.529357	-9908.811055
337488-337873	-16047.356656	-16051.231143	-16051.093446
337874-338289	-22588.60381	-22587.92642	-22588.089289
338290-338516	-9454.608368	-9456.355359	-9454.696777
338517-338741	-13609.584842	-13592.564724	-13616.555373
338742-338823	-3683.131664	-3680.684463	-3682.749501
338824-338978	-9227.799912	-9218.752378	-9226.943819
338979-339387	-14041.419748	-14029.797261	-14042.708093
339388-339511	-7068.377358	-7068.292049	-7068.255582
339512-340061	-18832.864204	-18836.068045	-18839.611118
340062-340344	-14016.725244	-14016.881916	-14027.951768
340345-340599	-12550.337973	-12542.658552	-12546.019709
340600-340686	-5055.834448	-5064.868564	-5071.126828
340687-341006	-13409.21259	-13409.960939	-13423.985956
341007-341097	-5262.69812	-5264.918948	-5266.997311
341098-341246	-8156.703974	-8161.332014	-8162.784002
341247-341358	-6676.86585	-6680.972237	-6685.298938
341359-341569	-14064.470218	-14063.004402	-14064.779092
341570-341803	-10881.439572	-10886.959758	-10893.683646
341804-341915	-6743.643572	-6744.897816	-6742.924857
341916-342029	-5615.205664	-5616.867348	-5624.185531
342030-342150	-7850.683668	-7852.881103	-7865.980123
342151-342275	-4785.777074	-4789.808658	-4793.055627
342276-342372	-4371.220841	-4365.841127	-4378.135021
342373-342501	-6735.32909	-6735.009173	-6737.068322
342502-342612	-6036.621444	-6034.957951	-6036.340848
342613-342862	-8759.765823	-8783.074013	-8794.04725
342863-342948	-4619.434464	-4625.036447	-4616.890216
342949-343092	-7317.725492	-7311.855517	-7319.264847
343093-343202	-5798.800316	-5812.894105	-5813.282221
343203-343351	-9447.227025	-9453.536417	-9462.795704
343352-343887	-35933.079741	-35930.422933	-35932.063103
343888-344362	-21940.865071	-21949.74687	-21942.399193
344363-344575	-12160.836087	-12153.691815	-12170.278921
344576-344720	-9060.50651	-9059.278461	-9065.120628
344721-344897	-10094.586293	-10103.041561	-10106.490367
344898-345070	-8407.597834	-8406.21451	-8408.769739
345071-345340	-14036.958766	-14047.597904	-14068.271243
345341-345544	-11899.886725	-11886.554823	-11904.729285
345545-345971	-18496.851452	-18514.791147	-18516.018885
345972-346145	-6959.134895	-6962.170202	-6961.842332
346146-346415	-11871.638793	-11875.224961	-11879.821316
346416-346503	-4388.819562	-4393.811252	-4398.178217
346504-346642	-6677.587287	-6673.767885	-6677.494621
346643-346772	-9195.903977	-9200.459867	-9204.37095
346773-347005	-14857.660145	-14869.282357	-14875.857184
347006-347087	-4613.698155	-4615.575801	-4619.253138
347088-347206	-8180.461128	-8187.291489	-8193.841676
347207-347375	-9431.40372	-9431.114906	-9430.968365
347376-347482	-6524.891759	-6527.88103	-6526.12203
347483-347600	-5874.23215	-5878.720069	-5876.649959
347601-347809	-9356.280033	-9358.035883	-9371.331362
347810-348107	-14284.873075	-14285.711445	-14285.377214
348108-348196	-6037.815679	-6043.911527	-6045.328941
348197-348504	-12850.23542	-12854.64581	-12850.560368
348505-348626	-5909.78759	-5916.115102	-5917.608544
348627-348741	-5739.906548	-5746.890334	-5742.418926
348742-348967	-10848.314083	-10853.625951	-10868.597562
348968-349078	-6222.030989	-6220.094499	-6218.185662
349079-349400	-14724.007226	-14726.675261	-14723.286545
349401-349544	-7472.858206	-7471.382319	-7472.36865
349545-349653	-6419.064249	-6419.854867	-6418.983186
349654-349895	-11318.920265	-11320.45417	-11323.214844
349896-350022	-6299.822272	-6302.828993	-6309.316184
350023-350457	-19426.659237	-19423.991348	-19437.721635
350458-350592	-7018.297202	-7021.39773	-7021.830582
350593-350764	-8817.405608	-8809.449223	-8825.283785
350765-350876	-6040.011084	-6039.724404	-6042.352625
350877-351148	-14977.229243	-14983.739329	-15003.130874
351149-351241	-4041.780396	-4043.293771	-4042.076203
351242-351368	-8684.189589	-8694.766521	-8695.25527
351369-351478	-6168.445396	-6175.213376	-6177.252744
351479-351574	-3933.040867	-3932.949957	-3934.825117
351575-351710	-7366.72931	-7364.194355	-7368.000118
351711-351928	-12879.628665	-12884.974685	-12890.560208
351929-352053	-6519.13349	-6531.069138	-6527.419462
352054-352239	-13919.226911	-13931.213528	-13928.107419
352240-352385	-8293.269507	-8289.533831	-8294.593385
352386-352567	-12724.520662	-12729.152133	-12730.356237
352568-352669	-5727.206827	-5721.969892	-5731.688351
352670-352795	-5507.847634	-5561.69979	-5568.200769
352796-352929	-7025.113257	-7024.746653	-7040.610838
352930-353038	-6678.540901	-6679.463056	-6678.32686
353039-353148	-7785.27159	-7783.598866	-7785.63068
353149-353236	-5274.59525	-5276.054827	-5277.794133
353237-353322	-5563.534774	-5561.305105	-5565.797722
353323-353445	-8659.86542	-8657.970515	-8663.967624
353446-353668	-9366.813676	-9429.451584	-9441.91126
353669-353805	-6169.156522	-6185.775316	-6186.860117
353806-353921	-7126.105643	-7131.613185	-7134.585744
353922-354090	-10242.856916	-10246.877804	-10256.166122
354091-354207	-5804.473176	-5803.095685	-5808.337621
354208-354339	-8149.733744	-8153.082271	-8159.760155
354340-354465	-6277.578834	-6274.332581	-6276.664774
354466-354582	-7282.991645	-7291.019435	-7296.046281
354583-354722	-5683.386374	-5691.719916	-5692.175233
354723-354816	-5616.103179	-5616.400972	-5621.037011
354817-354932	-8108.26966	-8112.592121	-8117.93561
354933-355121	-8242.375153	-8233.019819	-8244.375372
355122-355319	-10000.580065	-10004.264558	-9998.4766
355320-355407	-3505.850736	-3529.630636	-3538.815823
355408-355570	-7996.643498	-8016.77569	-8012.970161
355571-355914	-19596.043808	-19597.37742	-19610.509415
355915-356043	-5584.439247	-5588.089068	-5591.049706
356044-356197	-8302.304842	-8295.790934	-8305.675393
356198-356315	-6144.767246	-6156.962252	-6156.318952
356316-356404	-5242.967554	-5238.887021	-5243.088315
356405-356539	-6270.453746	-6269.531859	-6271.857422
356540-356673	-5395.162994	-5393.38952	-5404.636011
356674-356759	-5914.783831	-5917.33121	-5925.218431
356760-356877	-7865.523536	-7875.221535	-7872.841443
356878-357073	-12004.249696	-12006.114346	-12017.140026
357074-357248	-9223.967235	-9226.390148	-9224.081777
357249-357359	-4133.110578	-4142.445997	-4137.748161
357360-357554	-8911.216506	-8916.346653	-8912.771728
357555-357665	-5079.977963	-5074.588859	-5081.781412
357666-357752	-5068.855761	-5069.549234	-5069.534862
357753-357946	-10475.400474	-10471.059971	-10475.602082
357947-358080	-10194.606456	-10195.958667	-10199.548183
358081-358166	-6087.134566	-6089.966404	-6088.734693
358167-358357	-7602.145634	-7596.327157	-7607.986089
358358-358585	-12116.403275	-12119.128031	-12116.16259
358586-358708	-5307.366078	-5306.29779	-5308.924482
358709-358816	-6115.052321	-6114.263814	-6114.423466
358817-358900	-4774.545418	-4772.343231	-4774.970953
358901-359059	-7704.156996	-7699.552893	-7711.40742
359060-359225	-6795.822446	-6793.485016	-6799.43017
359226-359377	-8908.22839	-8903.24939	-8908.40109
359378-359516	-8165.297506	-8162.956004	-8165.608215
359517-359624	-6362.109114	-6360.084019	-6362.104516
359625-359716	-6971.998775	-6976.458222	-6978.836948
359717-359828	-6581.524131	-6585.344851	-6589.243457
359829-359965	-5778.447106	-5784.473525	-5786.087424
359966-360432	-25561.730082	-25573.182632	-25605.173836
360433-360771	-20473.608616	-20467.09716	-20472.241965
360772-360985	-9282.431221	-9292.613076	-9282.694649
360986-361139	-7703.874454	-7706.775431	-7715.794696
361140-361252	-8179.620467	-8189.072779	-8196.705633
361253-361601	-20695.932652	-20689.133897	-20696.720169
361602-361717	-5719.449747	-5713.413914	-5725.768641
361718-362063	-18889.189301	-18883.839122	-18888.904858
362064-362176	-5807.696282	-5802.767656	-5810.040243
362177-362374	-11629.345943	-11648.015538	-11650.323855
362375-362583	-11151.717497	-11152.438446	-11150.615636
362584-362756	-7952.377801	-7944.979293	-7954.930866
362757-362843	-4832.646956	-4827.534331	-4835.563264
362844-363007	-10672.429363	-10676.805457	-10680.27659
363008-363250	-15006.950578	-15011.110728	-15012.356887
363251-363516	-10659.110705	-10651.838727	-10658.964282
363517-363605	-6568.053307	-6565.68859	-6567.773433
363606-363759	-8164.465437	-8166.259378	-8175.715382
363760-363846	-5622.663277	-5624.433154	-5624.10873
363847-364023	-11495.977494	-11496.612266	-11506.209002
364024-364196	-8374.599939	-8382.744157	-8376.387422
364197-364378	-9874.55407	-9879.94964	-9898.611589
364379-364512	-7862.710023	-7871.160096	-7871.13521
364513-364703	-8671.221414	-8667.863961	-8670.146184
364704-364799	-4388.801058	-4386.286611	-4389.204458
364800-364914	-7337.801778	-7332.210937	-7338.498499
364915-365019	-5246.254013	-5254.53212	-5250.246053
365020-365153	-7574.535962	-7586.214611	-7582.514055
365154-365289	-5313.590892	-5315.680699	-5313.058997
365290-365373	-5063.347375	-5065.297546	-5068.692096
365374-365518	-7241.16892	-7246.462923	-7247.397502
365519-365625	-5600.205524	-5596.834073	-5605.66687
365626-365740	-5234.374902	-5234.742188	-5235.76434
365741-365875	-6819.082954	-6817.995883	-6819.639513
365876-366124	-11693.186588	-11689.87859	-11699.479874
366125-366250	-6347.12112	-6352.704003	-6348.968008
366251-366714	-17143.489949	-17141.833814	-17142.937063
366715-366849	-7148.14401	-7154.097849	-7153.791598
366850-367082	-15288.743318	-15326.712146	-15316.423671
367083-367190	-7014.230334	-7010.066968	-7010.034222
367191-367275	-4821.052775	-4820.88062	-4822.298591
367276-367374	-4854.561883	-4856.024949	-4857.959609
367375-367477	-4094.654948	-4099.694159	-4100.46343
367478-367640	-7520.221938	-7520.765278	-7528.391726
367641-367794	-7928.29813	-7988.220887	-7995.730737
367795-367914	-6309.422896	-6296.435346	-6309.556765
367915-368122	-9472.100186	-9497.369242	-9496.804204
368123-368215	-4634.777739	-4641.659268	-4639.262091
368216-368358	-6684.485851	-6696.556887	-6693.104755
368359-368444	-6503.485826	-6498.479908	-6502.784705
368445-368536	-5706.41804	-5730.245814	-5737.994637
368537-368779	-14515.902387	-14524.254075	-14531.522406
368780-368902	-6244.840694	-6239.315925	-6235.609283
368903-369119	-10088.663002	-10091.665131	-10092.985678
369120-369318	-10073.721512	-10070.919339	-10069.209589
369319-369475	-8577.339247	-8575.759619	-8574.579484
369476-369573	-5823.110258	-5830.163107	-5834.390509
369574-369678	-5181.283243	-5187.973232	-5186.297181
369679-369802	-9049.036698	-9045.984164	-9050.669225
369803-369954	-9423.449488	-9426.445356	-9422.875908
369955-370074	-7695.629948	-7703.708078	-7720.111836
370075-370228	-5521.604472	-5518.836093	-5522.562909
370229-370381	-7895.162158	-7892.08128	-7894.113286
370382-370504	-5961.522228	-5959.488426	-5961.19896
370505-370739	-8228.996961	-8232.368703	-8228.471581
370740-370916	-7909.704309	-7904.867176	-7909.512674
370917-371000	-3327.211344	-3334.155604	-3333.620269
371001-371207	-8962.837976	-8966.878375	-8961.630285
371208-371764	-32919.767966	-32926.83044	-32918.278083
371765-371862	-4679.280255	-4678.699624	-4679.798896
371863-372150	-12973.844733	-12979.436249	-12977.405371
372151-372248	-5283.987859	-5286.402894	-5286.141272
372249-372443	-11045.667117	-11048.702289	-11045.136702
372444-372603	-8063.491836	-8061.331628	-8063.893846
372604-372697	-3993.380773	-3997.110059	-3993.961776
372698-372881	-8917.043355	-8915.12135	-8916.625215
372882-373079	-10357.874696	-10357.190666	-10362.913899
373080-373217	-7365.521425	-7364.687865	-7364.962016
373218-373390	-9140.406571	-9137.356623	-9141.747219
373391-373813	-13656.358046	-13655.670772	-13663.973993
373814-373928	-5377.449498	-5378.360996	-5375.67099
373929-374018	-3875.056898	-3874.636783	-3875.002841
374019-374151	-8024.340089	-8032.052418	-8029.977599
374152-374247	-5762.41671	-5761.396944	-5762.359673
374248-374344	-6253.155267	-6255.448598	-6263.503949
374345-374468	-6266.922743	-6256.921899	-6273.270756
374469-374565	-3677.152159	-3673.837477	-3683.633165
374566-374728	-7461.654333	-7460.69848	-7462.450806
374729-374881	-7145.610774	-7144.568857	-7146.50667
374882-374978	-5234.175013	-5238.672493	-5237.713487
374979-375374	-18448.653352	-18452.652148	-18447.79982
375375-375870	-14172.851883	-14183.829051	-14174.650807
375871-375993	-7236.955035	-7238.710003	-7240.476458
375994-376282	-9689.089201	-9687.153512	-9702.547406
376283-376645	-20390.124854	-20380.528859	-20390.532872
376646-376805	-7995.078704	-7991.860621	-7996.310444
376806-376965	-8465.634345	-8465.910584	-8465.235344
376966-377088	-5847.653531	-5848.966527	-5847.067246
377089-377393	-13659.331655	-13657.262736	-13663.597729
377394-377517	-6158.732008	-6162.453818	-6158.563685
377518-377670	-6759.898248	-6759.003396	-6765.807108
377671-377785	-5899.697985	-5901.404358	-5910.698765
377786-378132	-17534.764708	-17559.894104	-17560.58794
378133-378236	-5358.282545	-5360.838152	-5360.712354
378237-378362	-6990.527397	-6993.716043	-6993.252252
378363-378495	-6408.051476	-6404.323061	-6406.935148
378496-378617	-5229.976368	-5231.796057	-5229.951221
378618-378749	-5794.44907	-5794.618487	-5795.210408
378750-378946	-10654.549988	-10665.847525	-10661.824235
378947-379029	-4005.704985	-4001.572438	-4005.454597
379030-379204	-8967.233	-8969.773371	-8972.521216
379205-379323	-5885.494008	-5880.633817	-5885.038406
379324-379413	-4237.552495	-4235.259258	-4237.364839
379414-379666	-9558.38643	-9567.51467	-9577.224853
379667-379774	-7511.898757	-7509.39567	-7516.015251
379775-379912	-6827.629124	-6827.597643	-6829.669227
379913-380023	-6216.394616	-6217.255078	-6224.746836
380024-380160	-7016.441405	-7012.158645	-7018.904296
380161-380342	-8669.119883	-8687.955223	-8690.566291
380343-380488	-7122.202273	-7126.390142	-7141.438635
380489-380586	-6125.410342	-6124.49662	-6124.855597
380587-380751	-9250.773072	-9253.451142	-9257.282599
380752-380835	-6434.214331	-6433.852285	-6430.552824
380836-381141	-17676.835262	-17684.814215	-17690.281829
381142-381298	-6302.699125	-6321.131725	-6347.703348
381299-381379	-3814.736134	-3819.455172	-3816.447153
381380-381477	-4237.222941	-4243.863248	-4247.179213
381478-381573	-7069.733847	-7061.891342	-7069.401641
381574-381668	-3893.438243	-3890.041438	-3893.894216
381669-381838	-8428.348113	-8435.473135	-8439.306147
381839-381921	-4913.638147	-4907.439483	-4915.058965
381922-382046	-8171.626749	-8173.427364	-8178.026811
382047-382149	-6236.41638	-6232.077539	-6242.102752
382150-382288	-7023.654262	-7026.949684	-7030.447983
382289-382408	-1909.915009	-1912.502056	-1909.986175
382409-382516	-6247.713239	-6248.484599	-6248.142074
382517-382730	-12594.636504	-12603.408354	-12593.747763
382731-382811	-3969.835914	-3976.080761	-3973.064345
382812-382948	-5704.48528	-5706.17159	-5704.698307
382949-383046	-4512.096416	-4510.549629	-4512.163447
383047-383142	-4196.107642	-4194.769332	-4196.309949
383143-383263	-6092.565485	-6100.196189	-6105.970871
383264-383438	-6044.257361	-6044.452209	-6043.964208
383439-383819	-16611.754494	-16616.366352	-16613.490069
383820-383971	-7953.034394	-7948.994508	-7952.559803
383972-384105	-6760.976027	-6752.010151	-6760.081078
384106-384248	-8611.650637	-8612.462408	-8613.09534
384249-384409	-8013.6994	-8016.539241	-8014.646383
384410-384538	-5009.719486	-5009.345812	-5009.844514
384539-384625	-4242.712646	-4243.491356	-4241.25375
384626-384712	-4142.474598	-4140.597127	-4142.374264
384713-384883	-7777.657445	-7778.369293	-7775.13335
384884-385074	-9094.453864	-9093.113461	-9099.967603
385075-385216	-9553.278193	-9547.252146	-9554.005751
385217-385509	-11420.199299	-11419.502095	-11418.036257
385510-385782	-14039.521574	-14036.186467	-14038.443443
385783-386072	-16256.596195	-16253.891937	-16259.130161
386073-386171	-5955.050383	-5957.831612	-5967.784568
386172-386287	-5263.718351	-5265.376082	-5262.456089
386288-386373	-4406.635863	-4406.59238	-4413.223464
386374-386480	-4668.896893	-4668.769715	-4676.178558
386481-386661	-8290.891299	-8290.910047	-8303.363994
386662-386747	-4684.740101	-4683.149924	-4690.140113
386748-386906	-6085.972996	-6092.5896	-6096.966997
386907-387034	-7222.386091	-7216.770165	-7226.327845
387035-387184	-9020.923362	-9021.56615	-9027.244099
387185-387281	-5888.552309	-5888.162418	-5888.770623
387282-387367	-4366.889908	-4370.79874	-4369.38471
387368-387467	-5821.450041	-5820.709991	-5823.373894
387468-387625	-7536.049696	-7536.078087	-7537.944228
387626-387712	-4315.085095	-4314.752988	-4316.830142
387713-387793	-4922.505482	-4918.968352	-4921.607708
387794-387978	-11570.816101	-11570.812673	-11569.269754
387979-388083	-5140.832728	-5139.596158	-5140.788783
388084-388225	-8076.494932	-8077.136829	-8075.305255
388226-388474	-9454.890732	-9451.749924	-9453.606656
388475-388615	-8589.744838	-8592.271636	-8588.366032
388616-388746	-7645.572262	-7646.334455	-7644.79224
388747-389014	-14285.060803	-14291.125738	-14284.154277
389015-389219	-7827.348706	-7829.852591	-7825.756713
389220-389312	-3016.599843	-3016.159693	-3016.710665
389313-389446	-7491.615119	-7483.340391	-7491.797425
389447-389646	-10506.879916	-10507.162622	-10505.581386
389647-389774	-5663.718479	-5658.742508	-5663.907124
389775-390025	-10094.263143	-10096.617048	-10099.08211
390026-390250	-13268.467241	-13269.956486	-13266.146308
390251-390338	-3911.040862	-3910.026163	-3917.642711
390339-390450	-4920.383336	-4925.704442	-4935.613389
390451-390534	-3558.941703	-3559.467568	-3557.503512
390535-390618	-3982.245709	-3975.371809	-3983.373387
390619-390917	-11331.615987	-11321.795185	-11332.219922
390918-391028	-6145.910537	-6145.52279	-6144.724277
391029-391135	-6771.582064	-6772.122398	-6780.622665
391136-391234	-3811.799974	-3816.340363	-3814.407385
391235-391359	-6591.904499	-6589.598445	-6595.055995
391360-391553	-8197.427023	-8191.76235	-8210.545725
391554-391850	-13539.069062	-13534.162961	-13537.556946
391851-391976	-6888.804485	-6889.801074	-6888.213524
391977-392282	-13396.885142	-13396.50818	-13394.999951
392283-392417	-5724.254348	-5725.409905	-5727.002969
392418-392520	-5573.564641	-5573.414286	-5576.885304
392521-392699	-8663.7042	-8658.644788	-8673.847429
392700-392842	-6126.723759	-6133.055895	-6132.28108
392843-392939	-5757.383468	-5761.637451	-5762.252351
392940-393023	-4796.013544	-4797.562466	-4801.611233
393024-393109	-4609.770697	-4618.051671	-4617.048175
393110-393244	-7174.179426	-7176.134142	-7179.733871
393245-393358	-6749.869185	-6746.782019	-6751.77105
393359-393441	-3693.768131	-3693.127941	-3697.997644
393442-393541	-6885.609223	-6885.755419	-6885.669161
393542-393633	-4591.43681	-4592.084406	-4591.991568
393634-393790	-9039.227655	-9040.763945	-9044.019276
393791-393969	-8679.523293	-8678.796453	-8680.49861
393970-394076	-5105.317095	-5103.678361	-5105.008744
394077-394208	-8148.490194	-8143.320405	-8149.229875
394209-394317	-5514.122853	-5513.595686	-5514.85521
394318-394517	-10291.187693	-10288.038269	-10291.551138
394518-394631	-4320.25628	-4318.661578	-4320.099685
394632-394792	-8943.657596	-8940.623791	-8942.906975
394793-394926	-6664.442065	-6662.276027	-6663.992602
394927-395245	-15103.695256	-15100.549493	-15104.745929
395246-395450	-10108.916294	-10122.277515	-10107.612615
395451-395653	-11707.110266	-11698.393917	-11705.624503
395654-395923	-17132.759029	-17128.501802	-17134.074953
395924-396006	-3726.384503	-3727.471683	-3725.95318
396007-396088	-2050.27207	-2047.06975	-2050.294658
396089-396172	-4580.40326	-4576.651665	-4580.037678
396173-396464	-16723.555067	-16725.958919	-16733.862398
396465-396558	-6091.577021	-6098.058754	-6097.809815
396559-396644	-4471.188104	-4482.912252	-4485.279667
396645-396730	-4435.687804	-4434.938051	-4437.18103
396731-396843	-6425.977428	-6425.989195	-6425.60305
396844-396953	-6784.322512	-6781.034147	-6784.417169
396954-397263	-12024.076547	-12026.913719	-12025.660484
397264-397369	-6315.964857	-6315.580236	-6315.086075
397370-397473	-4742.268355	-4742.542543	-4741.752028
397474-397577	-5562.048944	-5558.58296	-5573.689368
397578-397864	-17569.752437	-17568.140426	-17568.845882
397865-397982	-6987.135528	-6986.35412	-6986.416418
397983-398064	-4536.854158	-4525.422137	-4543.171123
398065-398199	-5417.087613	-5417.077224	-5416.313443
398200-398291	-6535.571272	-6537.180203	-6535.27648
398292-398383	-3535.012162	-3541.992089	-3541.340849
398384-398484	-5370.691803	-5377.028225	-5372.424425
398485-398607	-3786.185836	-3798.600156	-3799.01825
398608-398708	-4688.86126	-4697.179045	-4694.645292
398709-398874	-5819.268468	-5816.652037	-5817.658845
398875-398957	-4506.73874	-4508.022618	-4506.736126
398958-399177	-9260.998598	-9259.557753	-9261.523065
399178-399338	-6917.394456	-6921.370203	-6917.105817
399339-399512	-7808.666596	-7808.854564	-7808.075911
399513-399612	-5929.212177	-5928.650252	-5929.819089
399613-399694	-3459.894915	-3459.85765	-3460.27127
399695-399780	-4007.969105	-4006.900218	-4007.251046
399781-399931	-7039.493092	-7036.136191	-7040.856653
399932-400019	-2719.023802	-2727.308953	-2731.793575
400020-400160	-5352.458815	-5349.604016	-5352.787804
400161-400251	-6825.617132	-6817.840889	-6833.769597
400252-400443	-7976.445886	-8000.943901	-7998.108432
400444-400533	-4172.387937	-4170.926127	-4172.58826
400534-400674	-7128.480299	-7125.257182	-7126.999528
400675-400902	-9347.647026	-9346.937241	-9347.86268
400903-401204	-16787.540244	-16781.171255	-16786.476277
401205-401319	-5934.318463	-5928.87469	-5937.440441
401320-401405	-4188.8478	-4192.057846	-4187.381023
401406-401526	-5238.467566	-5225.112036	-5231.159972
401527-401632	-6832.1085	-6832.667219	-6841.087878
